<?xml version="1.0" standalone="no"?>
<!DOCTYPE svg PUBLIC "-//W3C//DTD SVG 20010904//EN"
 "http://www.w3.org/TR/2001/REC-SVG-20010904/DTD/svg10.dtd">
<svg version="1.0" xmlns="http://www.w3.org/2000/svg"
 width="270.000000pt" height="186.000000pt" viewBox="0 0 270.000000 186.000000"
 preserveAspectRatio="xMidYMid meet">
<metadata>
Created by potrace 1.10, written by Peter Selinger 2001-2011
</metadata>
<g transform="translate(0.000000,186.000000) scale(0.100000,-0.100000)"
fill="#000000" stroke="none">
<path d="M1480 1713 c0 -82 -5 -175 -11 -208 -14 -76 -26 -295 -17 -295 16 0
25 39 23 110 -1 41 3 78 8 81 6 4 6 18 -1 38 -6 17 -7 33 -2 36 4 3 10 1 12
-5 1 -5 4 14 6 43 5 74 5 79 2 205 -1 77 2 117 10 127 10 12 9 15 -9 15 -20 0
-21 -4 -21 -147z"/>
<path d="M1600 1845 c0 -8 5 -15 10 -15 6 0 9 -3 8 -7 -1 -5 2 -33 6 -63 13
-80 13 -87 17 -175 4 -77 3 -80 -18 -83 -13 -2 -23 1 -23 7 0 6 -7 11 -15 11
-9 0 -15 10 -16 25 -2 44 -4 48 -15 52 -16 5 -14 -84 2 -98 7 -6 29 -11 48
-12 29 -1 36 -5 41 -27 8 -38 -1 -98 -19 -115 -11 -11 -13 -25 -9 -47 6 -31 6
-31 -30 -25 -27 4 -35 2 -31 -8 3 -8 -4 -16 -16 -20 -16 -5 -19 -10 -11 -18 8
-8 23 -8 54 0 24 7 52 10 63 8 64 -13 74 -16 74 -25 0 -6 -10 -10 -23 -10 -15
0 -29 -9 -37 -25 -7 -14 -18 -25 -24 -25 -11 0 -29 -24 -54 -72 -7 -16 -17
-28 -22 -28 -4 0 -10 -7 -13 -14 -4 -10 -1 -13 9 -9 14 5 20 -18 7 -30 -13
-13 -33 15 -27 39 4 15 2 24 -5 24 -24 0 -16 -50 11 -71 12 -9 18 -21 14 -28
-4 -7 -2 -18 4 -26 6 -8 8 -20 4 -26 -4 -8 -3 -9 4 -5 7 4 9 19 6 35 -4 20 1
40 18 67 14 22 27 44 29 50 9 24 95 133 105 133 6 1 17 7 23 15 7 8 26 18 42
21 16 4 29 11 29 16 0 6 5 7 12 3 7 -4 8 -3 4 4 -9 14 15 52 32 52 9 0 11 7 7
23 -4 13 -3 17 2 10 7 -9 16 -6 36 13 15 14 25 29 22 35 -4 5 1 16 9 25 9 8
16 26 16 39 0 22 3 23 25 15 19 -7 23 -6 19 5 -3 7 -12 11 -20 8 -8 -3 -14 0
-14 7 0 10 -3 10 -15 0 -8 -7 -15 -18 -15 -25 0 -7 -7 -18 -15 -25 -10 -8 -13
-23 -10 -44 4 -22 3 -27 -4 -16 -5 8 -7 18 -4 24 3 5 1 6 -5 2 -5 -3 -12 -2
-14 4 -2 6 -9 0 -17 -12 -13 -20 -12 -22 1 -11 8 7 17 10 21 7 6 -7 -84 -99
-95 -96 -4 1 -5 -5 -1 -13 5 -13 7 -13 19 2 7 10 13 14 14 8 0 -18 -14 -32
-52 -53 -31 -18 -38 -19 -55 -7 -10 8 -28 15 -39 15 -40 0 -49 25 -28 78 24
61 23 270 -1 430 -15 97 -20 112 -36 112 -11 0 -19 -7 -19 -15z m3 -592 c-7
-2 -19 -2 -25 0 -7 3 -2 5 12 5 14 0 19 -2 13 -5z m14 -168 c-15 -16 -19 -13
-11 9 3 9 10 13 15 10 5 -3 3 -11 -4 -19z m-24 -50 c-3 -9 -8 -14 -10 -11 -3
3 -2 9 2 15 9 16 15 13 8 -4z"/>
<path d="M2106 1838 c-3 -13 -6 -35 -6 -50 0 -15 -4 -30 -10 -33 -5 -3 -10
-11 -10 -16 0 -6 5 -7 10 -4 6 3 10 -4 10 -17 0 -17 -3 -19 -9 -9 -6 9 -11 10
-15 2 -4 -6 -5 -15 -2 -20 4 -5 2 -20 -4 -33 l-10 -23 3 25 c1 14 -2 25 -8 25
-5 0 -9 -13 -8 -30 2 -26 0 -27 -9 -12 -9 18 -11 17 -28 -10 -19 -31 -16 -50
6 -32 7 6 12 15 9 19 -3 4 6 8 20 8 14 0 22 -4 19 -9 -3 -5 0 -9 6 -9 6 0 8
-5 4 -12 -5 -9 -2 -8 10 1 9 8 13 17 8 20 -5 3 -7 20 -5 37 4 24 9 31 23 27
12 -3 19 3 23 18 7 24 -9 52 -24 43 -5 -3 -9 -1 -9 5 0 5 4 12 9 15 4 3 11 18
14 33 3 16 9 36 12 46 5 11 2 17 -8 17 -8 0 -17 -10 -21 -22z m24 -118 c0 -5
-4 -10 -10 -10 -5 0 -10 5 -10 10 0 6 5 10 10 10 6 0 10 -4 10 -10z"/>
<path d="M2355 1815 c-16 -24 -31 -42 -34 -40 -5 6 -21 -22 -50 -85 -11 -25
-25 -52 -31 -60 -5 -8 -17 -30 -26 -48 -9 -18 -25 -37 -35 -43 -11 -5 -19 -20
-19 -34 0 -13 -7 -30 -15 -39 -8 -8 -15 -20 -15 -26 0 -6 -5 -8 -10 -5 -8 5
-26 -24 -35 -55 0 -3 -17 -22 -37 -42 -35 -36 -37 -37 -41 -15 -4 21 -4 21 -6
1 0 -12 -13 -34 -28 -49 -16 -15 -36 -39 -45 -54 -10 -14 -18 -20 -18 -13 0 6
-4 12 -10 12 -5 0 -10 -7 -10 -16 0 -8 -4 -13 -8 -10 -5 3 -6 -8 -4 -25 3 -20
0 -29 -10 -29 -8 0 -15 -12 -16 -26 -1 -15 -7 -33 -13 -41 -7 -7 -9 -16 -5
-20 3 -3 6 -1 6 6 0 6 6 11 13 10 26 -3 36 2 31 15 -10 25 24 72 125 174 121
123 171 192 255 353 80 151 144 236 183 242 19 3 13 4 -17 5 -43 1 -47 -1 -75
-43z m-165 -294 c0 -6 -4 -13 -10 -16 -5 -3 -10 1 -10 9 0 9 5 16 10 16 6 0
10 -4 10 -9z"/>
<path d="M1565 1811 c-6 -11 9 -23 19 -14 9 9 7 23 -3 23 -6 0 -12 -4 -16 -9z"/>
<path d="M2160 1771 c0 -5 -3 -16 -6 -25 -3 -9 -2 -16 4 -16 5 0 12 11 14 25
3 14 1 25 -3 25 -5 0 -9 -4 -9 -9z"/>
<path d="M1521 1714 c0 -11 3 -14 6 -6 3 7 2 16 -1 19 -3 4 -6 -2 -5 -13z"/>
<path d="M1601 1714 c0 -11 3 -14 6 -6 3 7 2 16 -1 19 -3 4 -6 -2 -5 -13z"/>
<path d="M2242 1705 c0 -16 2 -22 5 -12 2 9 2 23 0 30 -3 6 -5 -1 -5 -18z"/>
<path d="M1977 1577 c-3 -8 1 -14 9 -14 16 0 19 13 5 21 -5 3 -11 0 -14 -7z"/>
<path d="M2026 1565 c-3 -8 -1 -15 4 -15 13 0 22 18 11 24 -5 3 -11 -1 -15 -9z"/>
<path d="M1956 1534 c-4 -11 -1 -12 13 -5 10 6 22 6 27 2 5 -5 18 -5 29 -1 18
8 18 9 -5 10 -14 1 -33 3 -42 5 -9 2 -19 -3 -22 -11z"/>
<path d="M1970 1511 c0 -5 7 -11 15 -15 8 -3 15 -1 15 3 0 5 -7 11 -15 15 -8
3 -15 1 -15 -3z"/>
<path d="M1976 1431 c-4 -7 -5 -15 -2 -18 9 -9 19 4 14 18 -4 11 -6 11 -12 0z"/>
<path d="M1581 1394 c0 -11 3 -14 6 -6 3 7 2 16 -1 19 -3 4 -6 -2 -5 -13z"/>
<path d="M1601 1394 c0 -11 3 -14 6 -6 3 7 2 16 -1 19 -3 4 -6 -2 -5 -13z"/>
<path d="M2006 1373 c5 -5 12 -12 16 -18 4 -6 8 -2 8 8 0 9 -7 17 -17 17 -9 0
-12 -3 -7 -7z"/>
<path d="M1481 1314 c0 -11 3 -14 6 -6 3 7 2 16 -1 19 -3 4 -6 -2 -5 -13z"/>
<path d="M1903 1312 c-8 -5 -8 -12 3 -27 13 -18 14 -18 12 8 -1 15 -3 27 -3
27 0 0 -5 -4 -12 -8z"/>
<path d="M1590 1290 c-13 -8 -12 -10 3 -10 9 0 17 5 17 10 0 12 -1 12 -20 0z"/>
<path d="M1863 1246 c4 -9 -2 -17 -14 -21 -10 -4 -17 -10 -14 -15 7 -12 45 20
45 37 0 7 -5 13 -11 13 -6 0 -9 -7 -6 -14z"/>
<path d="M590 1210 c-25 -9 -44 -22 -42 -28 1 -7 -2 -12 -7 -12 -5 0 -13 -19
-19 -43 -12 -46 -60 -120 -89 -136 -10 -5 -33 -34 -52 -65 -31 -51 -33 -61
-27 -109 10 -77 59 -170 100 -190 24 -11 36 -25 41 -46 3 -16 13 -35 21 -41
16 -14 48 -5 39 11 -4 6 -14 8 -23 4 -12 -4 -12 -1 4 16 10 12 13 19 5 14 -17
-10 -31 11 -31 46 0 51 95 118 166 119 82 0 353 106 431 167 32 25 98 65 147
89 49 24 84 44 78 44 -7 0 -12 5 -12 11 0 5 5 7 10 4 6 -3 10 -1 10 5 0 6 6 8
13 4 6 -4 9 -4 5 1 -4 4 -2 15 5 24 11 14 10 14 -5 2 -10 -7 -18 -10 -18 -6 0
5 -8 2 -17 -6 -39 -31 -80 -48 -68 -29 4 6 -5 5 -20 -2 -18 -8 -22 -14 -13
-20 7 -4 18 -8 23 -8 6 0 4 4 -3 8 -8 6 -2 9 19 9 30 0 31 0 7 -13 -12 -7 -33
-10 -45 -7 -24 6 -52 -15 -46 -34 3 -8 -5 -7 -26 3 -17 9 -31 20 -31 25 0 6
-5 7 -10 4 -17 -10 -70 5 -70 20 0 8 -15 17 -36 21 -26 5 -32 9 -22 15 19 13
-17 39 -56 40 -30 1 -30 1 -6 8 l25 7 -25 7 c-44 12 -52 9 -40 -13 8 -16 8
-18 -4 -14 -8 3 -17 12 -20 20 -3 8 -14 14 -24 14 -10 0 -44 14 -75 31 -49 26
-58 28 -63 15 -3 -9 -10 -13 -16 -10 -6 4 -7 -8 -4 -30 4 -21 2 -36 -4 -36 -6
0 -10 -5 -10 -12 0 -7 7 -5 18 5 10 9 34 18 55 21 20 2 41 7 47 11 5 3 17 -1
26 -10 9 -9 23 -14 30 -11 24 9 15 -18 -13 -38 -14 -11 -23 -14 -19 -8 10 16
-36 16 -52 0 -6 -6 -15 -8 -19 -4 -4 4 -1 11 6 15 8 5 9 11 3 15 -5 3 -15 -1
-22 -9 -7 -8 -19 -15 -26 -15 -8 0 -14 -4 -14 -10 0 -13 13 -13 27 1 8 8 10 0
7 -30 -2 -27 0 -40 7 -36 5 4 7 15 4 26 -5 16 -3 18 17 10 13 -5 35 -4 51 1
15 6 41 8 57 6 23 -3 30 -1 30 11 0 11 10 17 30 18 19 1 29 -2 27 -10 -1 -7 8
-12 20 -11 12 0 21 -4 20 -9 -1 -5 18 -20 43 -34 24 -13 54 -33 66 -44 l22
-21 7 21 c6 21 16 26 28 15 9 -9 -61 -66 -73 -59 -5 3 -7 0 -4 -9 7 -18 -27
-30 -58 -21 -21 7 -22 6 -5 -7 17 -13 17 -14 -7 -13 -14 1 -29 5 -33 8 -3 4
-11 7 -17 7 -6 0 -3 -5 7 -11 9 -5 17 -15 17 -20 0 -6 -4 -8 -8 -5 -4 2 -21
-2 -37 -9 -140 -65 -164 -53 -152 78 6 58 5 60 -7 32 -8 -16 -15 -54 -17 -84
-4 -54 -4 -54 31 -66 34 -12 34 -12 11 -20 -14 -4 -52 -9 -85 -10 -34 -1 -78
-10 -99 -18 -20 -9 -39 -15 -41 -14 -8 4 -49 -39 -57 -61 -5 -13 -13 -20 -19
-17 -6 3 -10 -4 -10 -16 0 -20 -1 -20 -28 7 -21 22 -26 34 -20 50 5 17 2 23
-13 27 -11 3 -19 14 -19 26 0 12 -4 21 -10 21 -18 0 -11 84 10 110 11 14 20
30 20 36 0 6 11 21 26 34 21 21 27 22 34 10 7 -10 10 -11 10 -2 0 6 7 12 16
12 8 0 12 -4 9 -10 -3 -5 -1 -10 4 -10 6 0 11 -4 11 -10 0 -5 -7 -10 -15 -10
-8 0 -15 -4 -15 -10 0 -5 6 -7 14 -4 12 4 14 -12 11 -95 -2 -103 8 -136 19
-58 3 23 5 79 5 124 0 68 3 82 14 77 8 -3 18 -1 22 5 3 7 0 8 -9 5 -10 -4 -16
-1 -16 7 0 10 -3 10 -8 3 -10 -16 -72 -12 -72 4 0 11 11 14 65 16 11 1 24 11
30 24 5 12 13 22 17 22 5 0 8 5 8 10 0 7 -6 7 -20 0 -11 -6 -20 -16 -20 -23 0
-7 -13 -12 -29 -13 -21 -1 -28 3 -24 12 3 8 9 14 14 14 5 0 9 7 9 15 0 8 8 15
18 15 14 0 15 2 2 10 -13 9 -13 11 0 20 8 5 11 10 5 10 -5 0 -1 7 10 16 17 13
18 16 5 25 -12 8 -10 9 8 4 13 -4 29 -1 37 5 8 6 19 9 25 5 6 -4 20 1 31 11
15 13 16 19 7 26 -7 4 -17 8 -23 8 -5 0 -3 -5 5 -10 8 -5 10 -10 5 -10 -6 0
-15 4 -20 8 -6 5 -30 1 -55 -8z m138 -57 c-22 -27 -30 -11 -19 35 1 1 7 -3 15
-10 10 -9 11 -17 4 -25z m152 -59 c0 -10 -6 -14 -14 -11 -8 3 -17 -1 -20 -9
-3 -8 -11 -14 -17 -14 -7 0 -2 11 11 25 27 29 40 32 40 9z m35 6 c-3 -5 -10
-10 -16 -10 -5 0 -9 5 -9 10 0 6 7 10 16 10 8 0 12 -4 9 -10z m40 -11 c11 -16
1 -19 -13 -3 -7 8 -8 14 -3 14 5 0 13 -5 16 -11z m-165 -29 c0 -5 -7 -10 -15
-10 -8 0 -15 5 -15 10 0 6 7 10 15 10 8 0 15 -4 15 -10z m230 -20 c0 -5 -4
-10 -10 -10 -5 0 -10 5 -10 10 0 6 5 10 10 10 6 0 10 -4 10 -10z m94 -55 c-4
-8 -10 -12 -15 -9 -11 6 -2 24 11 24 5 0 7 -7 4 -15z"/>
<path d="M1610 1210 c-8 -5 -45 -10 -82 -10 -37 0 -69 -4 -72 -9 -3 -5 -17 -8
-31 -8 -14 0 -36 -9 -48 -20 -37 -34 -51 -39 -44 -17 5 12 -1 9 -14 -9 -11
-15 -25 -25 -29 -22 -5 3 -14 -4 -20 -15 -7 -13 -7 -20 0 -20 5 0 10 8 11 18
0 9 3 12 5 6 3 -6 28 1 65 19 64 31 176 52 222 41 27 -6 28 -7 10 -24 -10 -9
-22 -15 -28 -12 -16 10 -36 11 -30 2 8 -13 -6 -40 -20 -40 -8 0 -17 -5 -21
-11 -4 -7 2 -10 17 -8 13 2 30 0 37 -4 16 -11 28 21 13 36 -8 8 -11 8 -11 -3
0 -7 -2 -11 -5 -8 -3 3 -3 13 1 22 6 15 8 15 18 1 9 -13 15 -10 38 19 15 18
30 46 34 60 7 29 6 30 -16 16z"/>
<path d="M1722 1151 c-39 -38 -73 -80 -77 -93 -4 -12 -14 -31 -23 -40 -9 -11
-11 -18 -4 -18 11 0 36 36 37 55 1 6 6 9 13 8 6 -2 9 3 6 11 -3 8 -1 17 4 20
5 3 10 -6 10 -19 0 -14 -3 -25 -7 -25 -4 0 -15 -15 -25 -34 -12 -24 -23 -33
-35 -29 -13 4 -13 3 -2 -5 12 -9 12 -13 -2 -27 -22 -22 -21 -28 6 -40 31 -15
70 -4 83 24 6 12 23 34 36 49 47 51 114 163 88 147 -6 -3 -10 -2 -10 3 0 6 7
12 15 16 8 3 15 13 14 23 0 11 -3 13 -6 6 -2 -7 -13 -13 -24 -13 -16 0 -18 -5
-14 -32 3 -18 0 -40 -5 -48 -9 -13 -11 -13 -21 0 -8 12 -9 11 -5 -5 4 -13 -6
-34 -29 -64 -19 -24 -35 -40 -35 -35 -1 5 -9 -6 -18 -25 -9 -19 -21 -33 -26
-32 -5 2 -12 -3 -17 -10 -6 -11 -9 -10 -14 3 -7 17 49 113 93 160 22 24 23 29
11 45 -13 16 -12 17 2 5 14 -10 20 -10 33 3 9 9 13 21 10 27 -3 5 4 20 17 34
18 19 19 24 6 24 -8 0 -47 -31 -85 -69z m38 -1 c0 -5 -2 -10 -4 -10 -3 0 -8 5
-11 10 -3 6 -1 10 4 10 6 0 11 -4 11 -10z m-42 -44 c-7 -8 -15 -12 -17 -11 -5
6 10 25 20 25 5 0 4 -6 -3 -14z"/>
<path d="M630 1165 c-1 -5 -2 -13 -1 -17 0 -5 -10 -8 -23 -8 -14 0 -27 -4 -30
-9 -3 -4 6 -6 19 -3 34 6 32 -16 -2 -24 l-27 -7 24 -9 c19 -7 27 -5 37 9 8 9
11 23 9 30 -3 7 1 13 9 13 8 0 15 8 15 18 0 13 -2 14 -9 3 -7 -11 -9 -11 -14
0 -3 8 -6 10 -7 4z"/>
<path d="M2625 1138 c-38 -16 -122 -45 -185 -65 -159 -48 -165 -51 -98 -49 32
0 58 4 58 8 0 11 34 15 58 6 18 -6 22 -4 22 12 0 11 7 19 18 19 9 0 28 2 42 4
14 3 33 5 43 6 9 0 16 7 15 14 -2 7 9 13 27 15 34 3 80 34 74 49 -2 6 -34 -2
-74 -19z"/>
<path d="M777 1123 c-12 -12 -7 -22 8 -17 8 4 15 10 15 15 0 11 -14 12 -23 2z"/>
<path d="M810 1104 c0 -8 5 -12 10 -9 6 4 8 11 5 16 -9 14 -15 11 -15 -7z"/>
<path d="M2030 1070 c0 -4 9 -10 20 -13 11 -3 20 -2 20 3 0 4 -9 10 -20 13
-11 3 -20 2 -20 -3z"/>
<path d="M1408 1045 c-18 -12 -44 -26 -57 -30 -24 -7 -24 -8 -6 -21 22 -16 16
-18 -19 -4 -19 7 -25 6 -23 -3 1 -7 6 -15 11 -18 4 -4 3 -10 -3 -13 -6 -4 -14
0 -17 8 -5 13 -8 13 -20 1 -20 -19 -18 -21 21 -23 26 -2 35 1 35 13 0 8 9 15
20 15 11 0 20 5 20 11 0 6 9 9 20 6 17 -4 20 -2 15 14 -6 17 -3 19 21 13 24
-6 26 -5 22 14 -5 17 -1 22 21 24 l26 3 -27 6 c-19 4 -38 -1 -60 -16z"/>
<path d="M1735 1052 c-8 -21 -3 -22 17 -2 14 13 15 17 3 17 -8 0 -17 -7 -20
-15z"/>
<path d="M2590 1060 c-8 -5 -12 -11 -9 -14 3 -3 14 1 25 9 21 16 8 20 -16 5z"/>
<path d="M660 1051 c0 -7 -7 -19 -15 -28 -9 -8 -13 -18 -10 -21 3 -3 15 4 27
16 17 17 20 24 10 34 -9 9 -12 9 -12 -1z"/>
<path d="M1829 1012 c-49 -51 -68 -67 -84 -71 -18 -5 -18 -10 -1 -17 11 -4 31
5 56 25 21 17 45 31 52 31 10 0 10 2 1 8 -24 15 25 45 63 37 19 -3 34 -10 34
-15 0 -5 6 -7 13 -4 7 2 21 -3 32 -12 11 -8 14 -12 6 -8 -10 5 -12 3 -7 -5 6
-9 11 -9 22 0 11 9 14 8 14 -3 0 -9 9 -27 20 -41 23 -29 26 -42 8 -31 -7 4 -6
-1 3 -12 24 -30 48 -91 32 -81 -5 3 -9 -9 -9 -25 l-1 -31 14 24 c10 16 12 18
8 5 -3 -11 0 -23 6 -27 7 -4 9 -14 6 -22 -5 -13 -28 -15 -140 -14 -75 1 -133
-1 -130 -5 2 -5 -35 -8 -82 -8 -53 0 -84 4 -80 10 3 5 -7 5 -25 -1 -28 -10
-160 -6 -178 5 -5 3 -31 8 -58 12 -27 3 -51 10 -52 15 -2 5 -7 7 -11 5 -4 -3
-39 -10 -76 -16 -38 -6 -74 -15 -80 -19 -5 -5 -26 -12 -45 -16 -19 -4 -60 -19
-90 -32 -30 -13 -72 -25 -92 -26 -22 -1 -32 -4 -25 -9 8 -5 4 -8 -11 -8 -29 0
-118 -27 -155 -46 -15 -9 -35 -14 -45 -13 -34 3 -53 -1 -47 -11 3 -6 -1 -7
-10 -4 -8 4 -21 1 -29 -5 -10 -9 -15 -8 -20 4 -3 9 1 18 9 21 8 4 12 11 9 16
-4 7 -10 4 -16 -5 -5 -9 -23 -19 -41 -22 -23 -5 -33 -12 -34 -26 -2 -17 5 -19
53 -19 56 0 117 17 474 134 l195 64 65 -15 c52 -13 123 -15 355 -13 160 2 325
4 368 4 65 1 77 4 73 16 -2 8 -14 47 -25 85 -28 99 -66 190 -90 221 -11 15
-19 29 -17 33 3 4 -15 8 -40 9 -28 1 -44 -3 -44 -10 0 -9 -3 -9 -12 0 -21 21
-42 13 -89 -36z m175 17 c18 -17 1 -15 -34 3 -35 18 -35 18 -5 12 17 -4 34
-10 39 -15z m-1377 -475 c-3 -3 -12 -4 -19 -1 -8 3 -5 6 6 6 11 1 17 -2 13 -5z"/>
<path d="M2106 1045 c5 -11 -1 -15 -21 -15 -21 0 -26 -4 -21 -16 3 -9 6 -19 6
-24 0 -11 42 0 61 17 9 8 23 13 30 11 13 -3 19 -7 53 -35 7 -6 17 -9 20 -6 3
4 6 -1 6 -9 0 -9 -6 -19 -12 -21 -9 -4 -9 -8 -3 -14 11 -9 29 -36 47 -71 10
-19 9 -25 -3 -33 -10 -6 -7 -9 13 -9 26 0 26 1 15 36 -6 21 -19 39 -29 42 -10
2 -16 8 -13 12 3 5 1 11 -5 15 -5 3 -10 11 -10 17 0 6 12 3 26 -6 14 -10 30
-16 36 -14 6 2 -4 14 -23 26 l-34 23 35 -2 c62 -5 176 38 157 58 -4 3 -15 0
-24 -9 -24 -20 -70 -21 -126 -4 -26 8 -44 10 -41 5 8 -14 -3 -11 -56 16 -57
29 -92 33 -84 10z m210 -62 c-8 -8 -56 6 -56 17 0 5 13 5 31 -2 16 -6 28 -13
25 -15z"/>
<path d="M2562 1030 c0 -19 2 -27 5 -17 2 9 2 25 0 35 -3 9 -5 1 -5 -18z"/>
<path d="M1460 1030 c0 -5 6 -10 14 -10 8 0 18 5 21 10 3 6 -3 10 -14 10 -12
0 -21 -4 -21 -10z"/>
<path d="M823 1002 c-11 -9 -18 -22 -16 -29 2 -6 -3 -28 -12 -50 l-16 -38 24
28 25 27 4 -25 c3 -14 -3 -37 -13 -55 -11 -17 -19 -32 -19 -35 0 -10 40 1 45
13 3 7 10 10 15 7 7 -4 9 2 5 17 -4 13 -7 32 -9 41 -1 9 -5 20 -9 23 -4 4 -7
18 -7 31 0 16 -4 22 -12 17 -9 -5 -10 -4 -3 4 11 13 58 5 50 -8 -3 -5 -1 -11
4 -14 5 -4 8 2 6 11 -2 10 -4 20 -4 23 -1 3 -10 11 -20 17 -15 10 -23 9 -38
-5z"/>
<path d="M930 1012 c0 -5 11 -14 23 -19 19 -9 24 -8 24 3 0 7 -4 11 -8 8 -4
-2 -10 0 -14 6 -7 12 -25 13 -25 2z"/>
<path d="M1885 1010 c-3 -5 1 -10 9 -10 9 0 16 5 16 10 0 6 -4 10 -9 10 -6 0
-13 -4 -16 -10z"/>
<path d="M603 983 c-3 -10 -13 -26 -21 -35 -24 -28 -2 -21 25 8 13 14 21 30
18 35 -9 13 -15 11 -22 -8z"/>
<path d="M2640 992 c0 -7 -10 -13 -22 -13 -19 -1 -20 -2 -4 -6 20 -5 44 12 33
24 -4 3 -7 1 -7 -5z"/>
<path d="M720 981 c0 -10 26 -9 36 2 4 4 -2 7 -14 7 -12 0 -22 -4 -22 -9z"/>
<path d="M1010 980 c0 -5 7 -10 16 -10 8 0 12 5 9 10 -3 6 -10 10 -16 10 -5 0
-9 -4 -9 -10z"/>
<path d="M2448 983 c7 -3 16 -2 19 1 4 3 -2 6 -13 5 -11 0 -14 -3 -6 -6z"/>
<path d="M2488 983 c6 -2 18 -2 25 0 6 3 1 5 -13 5 -14 0 -19 -2 -12 -5z"/>
<path d="M1040 970 c-8 -5 -24 -12 -35 -16 -19 -6 -18 -7 5 -14 17 -4 28 -2
33 7 7 11 12 12 23 2 21 -17 25 -7 5 12 -10 11 -22 14 -31 9z"/>
<path d="M1525 969 c-4 -6 -5 -12 -2 -15 2 -3 7 2 10 11 7 17 1 20 -8 4z"/>
<path d="M914 949 c-9 -14 20 -21 47 -10 14 6 18 10 9 11 -8 1 -23 3 -32 5
-10 2 -20 -1 -24 -6z"/>
<path d="M2621 935 c-20 -20 -28 -22 -39 -12 -12 10 -14 7 -9 -18 3 -17 9 -78
12 -137 4 -63 11 -108 17 -108 7 0 9 21 6 55 -3 41 -1 55 7 51 7 -2 19 4 28
15 19 22 18 23 -17 9 -23 -8 -26 -7 -26 11 0 13 4 18 13 13 8 -6 8 -3 -1 9 -8
9 -11 25 -7 38 5 14 2 25 -6 30 -10 6 -6 9 14 9 21 0 27 5 27 21 0 11 4 17 10
14 6 -3 7 1 4 9 -3 9 -7 16 -8 15 0 0 -12 -11 -25 -24z"/>
<path d="M1220 925 c0 -29 15 -33 29 -6 11 20 5 31 -16 31 -7 0 -13 -11 -13
-25z"/>
<path d="M1185 930 c6 -10 3 -12 -11 -7 -15 6 -14 3 5 -13 13 -11 27 -18 30
-14 3 4 0 9 -7 11 -6 3 -10 9 -7 13 3 5 0 12 -6 16 -8 5 -9 3 -4 -6z"/>
<path d="M1527 920 c-3 -11 -1 -20 4 -20 5 0 9 2 9 4 0 2 3 11 6 20 3 9 2 16
-4 16 -5 0 -12 -9 -15 -20z"/>
<path d="M1260 924 c0 -3 7 -12 15 -20 16 -17 18 -14 9 10 -6 15 -24 23 -24
10z"/>
<path d="M482 860 c0 -14 2 -19 5 -12 2 6 2 18 0 25 -3 6 -5 1 -5 -13z"/>
<path d="M1185 860 c-3 -5 -1 -10 4 -10 6 0 11 5 11 10 0 6 -2 10 -4 10 -3 0
-8 -4 -11 -10z"/>
<path d="M1060 856 c0 -3 9 -10 20 -16 11 -6 20 -8 20 -6 0 3 -9 10 -20 16
-11 6 -20 8 -20 6z"/>
<path d="M1106 847 c3 -10 9 -15 12 -12 3 3 0 11 -7 18 -10 9 -11 8 -5 -6z"/>
<path d="M2520 850 c0 -5 5 -10 10 -10 6 0 10 5 10 10 0 6 -4 10 -10 10 -5 0
-10 -4 -10 -10z"/>
<path d="M1185 830 c-3 -5 -1 -10 4 -10 6 0 11 5 11 10 0 6 -2 10 -4 10 -3 0
-8 -4 -11 -10z"/>
<path d="M636 805 c4 -8 11 -15 16 -15 6 0 5 6 -2 15 -7 8 -14 15 -16 15 -2 0
-1 -7 2 -15z"/>
<path d="M1078 813 c6 -2 18 -2 25 0 6 3 1 5 -13 5 -14 0 -19 -2 -12 -5z"/>
<path d="M2549 798 c-3 -13 -1 -41 2 -63 5 -35 6 -33 8 23 1 63 -4 81 -10 40z"/>
<path d="M710 799 c0 -5 5 -7 10 -4 6 3 10 8 10 11 0 2 -4 4 -10 4 -5 0 -10
-5 -10 -11z"/>
<path d="M2263 744 c5 -50 11 -70 26 -80 16 -12 20 -29 23 -109 l3 -96 48 -42
c43 -38 48 -47 54 -95 4 -39 2 -57 -9 -70 -9 -9 -25 -35 -36 -57 -11 -22 -34
-53 -51 -69 -16 -16 -33 -42 -36 -57 -4 -16 -11 -29 -16 -29 -5 0 -9 -9 -9
-20 0 -40 20 -19 50 52 6 15 27 39 46 53 l34 26 0 -33 c0 -19 -5 -39 -11 -45
-8 -8 -8 -13 0 -17 6 -4 11 0 11 8 0 8 8 20 18 25 9 6 11 11 5 11 -9 0 -13 16
-13 46 0 34 7 54 26 80 24 31 26 41 21 90 -6 56 -40 124 -63 124 -27 0 -41 36
-42 111 -1 63 -5 84 -27 124 -22 38 -25 49 -14 57 10 6 7 7 -9 3 -21 -6 -22
-5 -16 34 5 30 3 41 -6 41 -10 0 -11 -16 -7 -66z"/>
<path d="M1026 788 c-9 -5 -20 -7 -25 -3 -5 3 -13 0 -16 -6 -4 -5 -13 -8 -21
-5 -8 3 -21 3 -30 -1 -11 -4 -5 -10 23 -19 47 -17 43 -17 43 1 0 20 19 19 27
-2 6 -15 7 -15 13 2 4 11 18 22 31 25 l24 6 -27 6 c-14 2 -33 1 -42 -4z"/>
<path d="M1120 790 c0 -6 7 -10 15 -10 8 0 15 2 15 4 0 2 -7 6 -15 10 -8 3
-15 1 -15 -4z"/>
<path d="M1590 760 c0 -6 -11 -8 -25 -6 -14 3 -25 0 -25 -5 0 -6 -10 -8 -22
-4 -20 5 -21 4 -6 -5 23 -14 88 -2 88 16 0 8 -2 14 -5 14 -3 0 -5 -5 -5 -10z"/>
<path d="M495 729 c4 -25 3 -30 -4 -19 -7 9 -11 10 -11 3 0 -19 17 -24 29 -9
8 10 9 16 1 21 -6 3 -8 10 -5 15 3 5 0 12 -6 16 -8 4 -9 -3 -4 -27z"/>
<path d="M855 740 c-11 -5 -15 -9 -10 -9 6 -1 3 -6 -5 -11 -12 -8 -9 -10 12
-10 18 0 26 4 23 13 -4 9 7 11 41 8 29 -2 44 1 40 7 -7 12 -73 13 -101 2z"/>
<path d="M2510 725 c0 -8 7 -15 15 -15 8 0 15 7 15 15 0 8 -7 15 -15 15 -8 0
-15 -7 -15 -15z"/>
<path d="M450 704 c0 -8 5 -12 10 -9 6 3 10 10 10 16 0 5 -4 9 -10 9 -5 0 -10
-7 -10 -16z"/>
<path d="M763 703 c-39 -14 -41 -16 -27 -31 15 -14 17 -14 25 0 6 10 17 14 31
10 15 -4 19 -2 13 8 -4 7 -2 16 6 21 19 12 2 9 -48 -8z"/>
<path d="M690 700 c-23 -7 -23 -8 -3 -9 12 -1 25 4 28 9 3 6 5 10 3 9 -2 -1
-14 -5 -28 -9z"/>
<path d="M2182 701 c-10 -6 -5 -11 19 -20 39 -13 39 -13 39 -1 0 6 -9 10 -19
10 -11 0 -21 4 -23 10 -2 5 -9 6 -16 1z"/>
<path d="M635 690 c-3 -6 1 -7 9 -4 18 7 21 14 7 14 -6 0 -13 -4 -16 -10z"/>
<path d="M825 680 c4 -6 11 -8 16 -5 14 9 11 15 -7 15 -8 0 -12 -5 -9 -10z"/>
<path d="M2457 670 c-18 -21 -4 -28 23 -10 10 6 12 12 5 19 -8 8 -16 5 -28 -9z"/>
<path d="M640 660 c0 -5 13 -8 30 -7 39 3 39 17 0 17 -16 0 -30 -4 -30 -10z"/>
<path d="M598 653 c6 -2 18 -2 25 0 6 3 1 5 -13 5 -14 0 -19 -2 -12 -5z"/>
<path d="M2459 639 c-17 -9 -32 -47 -37 -97 -1 -7 -6 -10 -12 -7 -5 3 -10 1
-10 -4 0 -6 9 -11 20 -11 16 0 20 7 20 30 0 17 5 30 11 30 6 0 9 9 6 20 -3 11
-1 17 4 14 5 -3 12 2 15 11 8 21 3 26 -17 14z"/>
<path d="M2598 638 c-3 -7 -1 -24 3 -38 6 -21 7 -19 6 13 0 39 -2 45 -9 25z"/>
<path d="M2400 480 c0 -11 2 -20 4 -20 2 0 6 9 9 20 3 11 1 20 -4 20 -5 0 -9
-9 -9 -20z"/>
<path d="M2390 33 c0 -15 19 -37 26 -31 3 4 -1 14 -10 23 -9 9 -16 13 -16 8z"/>
</g>
</svg>
