<?xml version="1.0" standalone="no"?>
<!DOCTYPE svg PUBLIC "-//W3C//DTD SVG 20010904//EN"
 "http://www.w3.org/TR/2001/REC-SVG-20010904/DTD/svg10.dtd">
<svg version="1.0" xmlns="http://www.w3.org/2000/svg"
 width="239.000000pt" height="211.000000pt" viewBox="0 0 239.000000 211.000000"
 preserveAspectRatio="xMidYMid meet">
<metadata>
Created by potrace 1.10, written by Peter Selinger 2001-2011
</metadata>
<g transform="translate(0.000000,211.000000) scale(0.100000,-0.100000)"
fill="#000000" stroke="none">
<path d="M575 1963 c-31 -8 -53 -32 -60 -67 -4 -17 -8 -38 -11 -47 -2 -9 5
-26 16 -39 17 -19 19 -32 15 -65 -5 -27 -1 -54 10 -83 18 -45 35 -55 35 -21 0
11 -4 17 -10 14 -5 -3 -10 2 -11 12 0 10 -2 27 -5 38 -4 23 14 75 27 75 5 0 6
7 3 15 -4 8 -1 15 6 15 6 0 8 5 3 13 -4 6 -8 19 -8 27 0 26 -44 24 -55 -2 -9
-20 -10 -18 -5 11 3 19 12 46 21 59 13 19 21 22 47 17 44 -10 54 -22 65 -80
l10 -50 1 45 c1 65 -8 89 -40 105 -15 8 -29 14 -31 14 -2 -1 -12 -4 -23 -6z
m-7 -140 c-4 -39 -28 -42 -28 -4 0 21 5 31 16 31 11 0 14 -8 12 -27z"/>
<path d="M1583 1928 c-20 -10 -32 -28 -18 -28 12 0 55 24 55 32 0 10 -9 9 -37
-4z"/>
<path d="M1626 1915 c-20 -30 -20 -35 -1 -35 8 0 15 -5 15 -11 0 -10 -20 -8
-72 7 -10 3 -18 1 -18 -5 0 -6 9 -11 20 -11 11 0 20 -4 20 -9 0 -13 -45 -22
-66 -14 -13 5 -16 3 -11 -10 3 -9 2 -17 -2 -17 -16 0 -20 29 -6 44 8 7 11 16
8 20 -4 3 1 6 10 6 10 0 17 7 17 15 0 31 -37 -4 -65 -61 l-28 -57 22 -18 c20
-16 26 -16 61 -4 45 16 56 8 62 -40 2 -22 9 -31 26 -33 12 -2 22 -8 22 -13 0
-5 16 -9 36 -9 l36 0 -6 -47 c-3 -27 -8 -109 -11 -183 -3 -74 -9 -148 -12
-164 -4 -21 -2 -27 8 -24 10 3 16 37 20 129 4 68 10 160 14 205 l7 80 54 -4
c52 -4 54 -4 56 22 0 14 1 31 2 37 1 12 -25 15 -146 20 -38 2 -68 6 -68 11 0
4 -6 5 -14 2 -13 -5 -33 30 -28 49 1 4 -12 0 -29 -9 -17 -8 -40 -14 -50 -11
-11 3 -19 0 -20 -6 0 -7 -4 -3 -8 8 -11 25 -1 43 11 21 5 -9 16 -16 24 -16 8
0 12 5 9 10 -3 6 1 10 10 10 9 0 29 8 43 19 17 11 42 18 65 17 28 -1 41 3 48
16 10 19 29 24 29 8 0 -6 -13 -24 -30 -42 -22 -22 -30 -26 -30 -14 0 9 -4 16
-10 16 -5 0 -10 -4 -10 -10 0 -5 -9 -10 -20 -10 -13 0 -20 -6 -19 -17 0 -10 3
-13 5 -6 4 8 16 10 34 7 35 -8 85 27 100 69 13 39 13 40 -10 65 -29 31 -83 30
-104 -3z m77 1 c21 -16 22 -26 2 -26 -7 0 -18 -7 -23 -16 -5 -9 -15 -14 -21
-10 -6 4 -9 12 -6 17 4 5 -1 9 -9 9 -9 0 -16 5 -16 10 0 6 6 10 14 10 8 0 18
-4 21 -10 3 -5 10 -10 16 -10 5 0 9 5 9 10 0 6 -7 10 -15 10 -8 0 -15 5 -15
10 0 14 22 12 43 -4z m-50 -203 c3 -5 -5 -8 -18 -8 -13 0 -21 3 -18 8 2 4 10
7 18 7 8 0 16 -3 18 -7z m117 -16 c0 -4 -9 -5 -20 -2 -11 4 -20 2 -20 -4 0 -6
-7 -11 -16 -11 -8 0 -12 5 -9 10 3 6 1 10 -4 10 -6 0 -11 -4 -11 -8 0 -4 -9
-8 -20 -9 -15 -1 -17 1 -8 11 14 14 108 17 108 3z m38 1 c18 -18 15 -23 -15
-25 -16 -1 -21 2 -13 7 7 4 9 13 6 19 -9 15 7 14 22 -1z"/>
<path d="M575 1890 c3 -5 8 -10 11 -10 2 0 4 5 4 10 0 6 -5 10 -11 10 -5 0 -7
-4 -4 -10z"/>
<path d="M615 1870 c-7 -12 2 -30 16 -30 12 0 12 27 0 35 -5 3 -12 1 -16 -5z"/>
<path d="M622 1805 c-7 -8 -9 -15 -4 -15 12 0 11 -33 0 -41 -5 -3 -3 -9 6 -12
13 -5 16 1 14 38 0 25 -2 45 -2 45 -1 -1 -7 -7 -14 -15z"/>
<path d="M1695 1767 c3 -7 27 -12 63 -13 31 -1 65 -4 75 -9 12 -5 17 -3 17 8
0 10 -16 16 -52 21 -82 9 -108 8 -103 -7z"/>
<path d="M222 1688 c1 -31 5 -55 8 -53 4 2 4 -10 2 -28 -4 -29 -3 -31 12 -17
14 14 15 24 5 75 -16 81 -30 93 -27 23z"/>
<path d="M560 1725 c0 -9 6 -12 15 -9 8 4 12 10 9 15 -8 14 -24 10 -24 -6z"/>
<path d="M180 1715 c-11 -13 -10 -22 3 -48 l16 -32 0 48 c1 52 -1 54 -19 32z"/>
<path d="M476 1705 c-3 -8 -1 -15 4 -15 6 0 10 5 10 11 0 5 5 7 12 3 7 -4 8
-3 4 4 -10 16 -23 15 -30 -3z"/>
<path d="M620 1670 c0 -22 -5 -40 -11 -40 -5 0 -7 -5 -3 -11 10 -17 22 2 30
49 4 28 3 42 -5 42 -6 0 -11 -17 -11 -40z"/>
<path d="M660 1690 c0 -5 5 -10 11 -10 5 0 7 5 4 10 -3 6 -8 10 -11 10 -2 0
-4 -4 -4 -10z"/>
<path d="M400 1683 c-23 -8 -90 -75 -105 -104 -12 -23 -12 -31 7 -68 22 -45
29 -49 48 -26 32 38 65 7 75 -72 l7 -48 131 5 132 5 25 47 c37 70 51 81 84 68
33 -12 48 -4 71 44 16 31 16 31 -17 59 -18 15 -49 39 -68 52 -39 26 -97 45
-86 27 17 -28 -48 -82 -100 -82 -41 0 -114 39 -133 71 -15 28 -37 34 -71 22z
m30 -23 c-12 -8 -12 -10 5 -10 18 -1 17 -2 -5 -15 -29 -17 -22 -19 15 -5 22 8
27 7 34 -13 5 -12 12 -22 17 -22 5 0 8 -4 6 -8 -1 -5 7 -5 19 -2 15 5 19 4 15
-4 -4 -6 -5 -11 -2 -11 2 0 13 -3 23 -6 15 -5 15 -4 3 5 -8 6 -10 11 -4 11 5
0 19 -7 30 -15 23 -17 38 -19 28 -3 -5 8 -2 9 9 5 10 -3 17 -3 17 1 0 4 18 16
41 26 22 11 43 24 46 29 4 6 0 7 -8 3 -8 -4 -5 0 5 8 25 20 32 20 40 1 3 -8
17 -20 32 -25 20 -8 24 -13 15 -24 -9 -11 -6 -12 14 -8 33 6 43 -20 20 -54
-12 -18 -20 -23 -27 -16 -6 6 -16 8 -23 6 -7 -3 -16 -1 -20 5 -3 6 0 9 8 5 8
-3 18 -1 22 5 3 6 11 11 16 11 6 0 7 -4 4 -10 -3 -5 -1 -10 4 -10 12 0 15 23
4 33 -3 4 -15 -1 -25 -10 -15 -14 -21 -14 -27 -4 -6 10 -10 8 -16 -6 -5 -10
-8 -20 -8 -23 1 -3 -5 -11 -13 -18 -8 -7 -14 -10 -14 -7 0 4 -7 -1 -16 -9 -8
-9 -13 -20 -9 -25 3 -5 -6 -22 -20 -38 -21 -24 -26 -26 -35 -13 -5 8 -10 10
-10 4 0 -9 -102 -12 -182 -5 -5 1 -8 8 -8 16 0 9 -7 32 -17 53 -9 20 -15 40
-15 44 1 4 -11 14 -28 23 -26 13 -29 14 -24 0 7 -16 -11 -21 -21 -5 -3 5 -13
7 -23 4 -9 -3 -6 2 8 11 23 15 24 15 3 10 -14 -4 -23 -2 -23 4 0 6 7 11 15 11
18 0 20 16 3 23 -8 3 -6 6 5 6 10 1 22 13 27 27 7 19 15 24 29 19 12 -3 21 0
25 10 3 8 11 15 18 15 9 0 8 -3 -2 -10z m-80 -150 c0 -5 -4 -10 -10 -10 -5 0
-10 5 -10 10 0 6 5 10 10 10 6 0 10 -4 10 -10z"/>
<path d="M370 1636 c0 -2 7 -7 16 -10 8 -3 12 -2 9 4 -6 10 -25 14 -25 6z"/>
<path d="M370 1586 c0 -24 35 -55 48 -42 3 3 1 6 -5 6 -6 0 -10 8 -8 18 1 9 0
11 -2 5 -7 -21 -26 -14 -20 7 3 11 1 23 -4 26 -5 3 -9 -6 -9 -20z"/>
<path d="M690 1566 c7 -7 13 -7 20 0 6 6 3 10 -10 10 -13 0 -16 -4 -10 -10z"/>
<path d="M466 1534 c-4 -9 -4 -19 -1 -22 2 -3 7 3 11 12 4 9 4 19 1 22 -2 3
-7 -3 -11 -12z"/>
<path d="M435 1530 c3 -5 8 -10 11 -10 2 0 4 5 4 10 0 6 -5 10 -11 10 -5 0 -7
-4 -4 -10z"/>
<path d="M430 1504 c0 -6 9 -21 20 -34 11 -13 20 -19 20 -14 -1 13 -40 61 -40
48z"/>
<path d="M471 1424 c0 -11 3 -14 6 -6 3 7 2 16 -1 19 -3 4 -6 -2 -5 -13z"/>
<path d="M670 1430 c0 -5 5 -10 10 -10 6 0 10 5 10 10 0 6 -4 10 -10 10 -5 0
-10 -4 -10 -10z"/>
<path d="M1340 1678 c0 -7 9 -35 19 -63 l19 -50 110 -3 109 -3 6 28 c4 15 9
37 12 49 4 13 2 21 -7 21 -7 1 -29 3 -48 6 -19 3 -66 8 -105 12 -38 3 -80 8
-92 11 -14 3 -23 0 -23 -8z m100 -38 c27 -24 38 -26 20 -5 -10 12 -10 15 1 16
26 2 54 -3 65 -12 6 -5 16 -4 24 4 10 10 12 9 7 -5 -7 -19 8 -25 18 -8 9 14
25 2 19 -14 -12 -31 -123 -52 -125 -23 0 10 -2 10 -6 0 -5 -14 -41 -17 -59 -5
-13 8 -34 46 -34 61 0 18 46 12 70 -9z"/>
<path d="M180 1573 c0 -32 5 -76 12 -98 6 -22 14 -105 18 -185 4 -80 13 -221
19 -315 6 -93 13 -224 15 -290 4 -103 7 -120 22 -124 15 -3 16 3 10 40 -4 24
-9 85 -12 134 -2 50 -9 142 -15 205 -10 111 -29 436 -33 572 -1 37 -5 70 -9
74 -4 4 -7 16 -7 26 0 10 -4 18 -10 18 -6 0 -10 -26 -10 -57z"/>
<path d="M246 1574 c-10 -25 1 -29 14 -5 6 12 7 21 1 21 -5 0 -12 -7 -15 -16z"/>
<path d="M1489 1544 c-1 -5 -1 -61 0 -124 2 -160 11 -271 22 -264 5 3 7 20 4
37 -3 18 -7 103 -10 191 -2 87 -7 161 -10 164 -3 3 -6 1 -6 -4z"/>
<path d="M1586 1428 c4 -68 7 -157 7 -198 -1 -73 -1 -74 7 -25 5 28 8 84 6
125 -2 41 -4 108 -5 148 -1 46 -5 72 -12 72 -8 0 -9 -33 -3 -122z"/>
<path d="M244 1505 c1 -19 5 -35 11 -35 5 0 4 -4 -4 -9 -7 -5 -12 -13 -10 -19
3 -7 11 -5 23 4 16 11 17 17 8 26 -7 7 -12 22 -12 34 0 13 -4 25 -8 28 -5 3
-8 -10 -8 -29z"/>
<path d="M918 1508 c-7 -13 -12 -25 -11 -28 1 -3 -8 -7 -20 -7 -12 -1 -27 -9
-33 -17 -19 -27 -126 -106 -135 -100 -16 10 -31 -7 -19 -21 6 -8 15 -26 18
-40 l7 -26 33 30 c17 17 38 31 45 31 26 0 147 143 147 173 0 26 -18 29 -32 5z
m-31 -73 c-10 -7 -17 -20 -17 -29 0 -18 -17 -21 -39 -7 -11 7 -9 12 10 21 13
7 28 19 32 27 5 7 13 10 19 7 7 -5 5 -11 -5 -19z m-47 -55 c0 -6 -10 -14 -22
-19 -13 -5 -33 -19 -46 -31 -13 -12 -30 -19 -38 -16 -17 7 -19 26 -1 26 6 0
26 11 42 25 31 25 65 33 65 15z"/>
<path d="M1904 1344 c3 -9 6 -20 6 -26 0 -6 6 -6 15 2 8 7 15 9 15 4 0 -11 20
18 20 29 0 4 -14 7 -31 7 -24 0 -30 -3 -25 -16z"/>
<path d="M425 1323 c-3 -16 -10 -48 -15 -73 -8 -40 -14 -162 -11 -230 1 -20 3
-22 11 -10 5 8 7 25 3 37 -3 13 -1 23 5 23 7 0 7 12 0 36 -8 32 -6 64 9 124 7
27 13 120 8 120 -2 0 -7 -12 -10 -27z"/>
<path d="M1620 1305 c0 -19 5 -35 10 -35 9 0 13 13 8 26 -2 3 5 10 15 15 25
14 21 29 -8 29 -22 0 -25 -4 -25 -35z"/>
<path d="M467 1289 c3 -24 7 -46 9 -48 9 -10 3 65 -5 78 -6 10 -8 -1 -4 -30z"/>
<path d="M647 1319 c7 -7 15 -10 18 -7 3 3 -2 9 -12 12 -14 6 -15 5 -6 -5z"/>
<path d="M1851 1323 c0 -4 4 -17 9 -28 8 -19 9 -19 9 2 1 12 -3 25 -9 28 -5 3
-10 3 -9 -2z"/>
<path d="M1757 1308 c4 -7 6 -21 4 -31 -2 -18 -2 -18 16 0 15 14 16 21 7 31
-7 6 -18 12 -24 12 -6 0 -8 -5 -3 -12z"/>
<path d="M1975 1299 c-4 -12 -3 -25 3 -31 6 -6 11 1 14 21 5 35 -7 42 -17 10z"/>
<path d="M552 1255 c0 -16 2 -22 5 -12 2 9 2 23 0 30 -3 6 -5 -1 -5 -18z"/>
<path d="M1790 1264 c0 -17 22 -14 28 4 2 7 -3 12 -12 12 -9 0 -16 -7 -16 -16z"/>
<path d="M1907 1273 c-4 -3 -7 -17 -7 -30 0 -25 -21 -53 -39 -53 -6 0 -11 -4
-11 -10 0 -5 -13 -10 -30 -10 -16 0 -30 5 -30 11 0 6 9 8 20 4 15 -5 18 -3 14
9 -11 29 -42 18 -55 -19 -7 -19 -17 -35 -22 -35 -5 0 -4 -7 3 -15 18 -21 41
-19 47 5 5 18 34 26 79 21 6 -1 17 18 24 41 19 61 30 79 41 72 6 -4 4 -15 -6
-30 -12 -18 -12 -24 -2 -24 17 0 52 -42 49 -57 -2 -8 3 -10 12 -7 17 7 9 31
-18 54 -9 7 -16 28 -16 46 0 29 -3 34 -23 34 -13 0 -27 -3 -30 -7z m-117 -127
c0 -8 -7 -16 -15 -20 -8 -3 -15 -1 -15 4 0 6 5 10 11 10 5 0 7 5 4 10 -3 6 -1
10 4 10 6 0 11 -6 11 -14z"/>
<path d="M1030 1204 c0 -4 21 -31 46 -60 43 -52 46 -58 59 -151 20 -140 20
-142 -16 -157 -35 -15 -27 -29 8 -15 39 14 46 42 34 132 -6 45 -16 99 -21 119
-16 55 -110 168 -110 132z"/>
<path d="M2080 1186 c-11 -5 -20 -13 -20 -18 0 -11 17 -10 25 2 7 12 75 14 75
2 0 -15 -44 -28 -92 -27 -47 0 -59 -7 -37 -21 6 -3 22 0 36 7 17 9 26 10 31 2
8 -12 62 -13 62 0 0 4 16 7 36 7 38 0 63 -17 56 -38 -5 -17 6 -15 25 3 8 9 18
13 22 9 3 -4 1 -9 -6 -11 -8 -3 -10 -15 -7 -32 4 -16 1 -32 -5 -35 -15 -10
-14 -76 2 -76 8 0 7 -4 -3 -10 -8 -5 -10 -10 -4 -10 15 0 10 -156 -6 -175 -8
-10 -8 -15 0 -20 7 -4 9 -24 6 -50 -2 -24 -1 -60 4 -81 10 -41 -2 -74 -25 -74
-24 0 -17 -20 8 -21 12 0 17 -3 10 -6 -9 -3 -10 -9 -1 -23 15 -24 -5 -65 -36
-76 -62 -21 -73 -21 -86 -1 -11 19 -13 19 -22 4 -7 -13 -23 -17 -64 -17 -46 0
-59 -4 -74 -22 -20 -25 -30 -22 -33 11 -1 24 -13 16 -19 -14 -2 -11 -11 -19
-18 -17 -10 2 -8 -4 5 -18 17 -19 20 -20 23 -6 6 31 27 10 26 -27 0 -20 3 -34
7 -31 5 2 15 -9 24 -26 19 -37 31 -39 30 -4 0 33 24 49 60 40 l29 -7 -24 -12
c-42 -21 -64 -90 -40 -127 9 -13 11 -13 19 0 6 9 6 19 -1 27 -5 7 -8 18 -5 25
4 9 6 8 6 -3 1 -9 8 -22 17 -30 14 -11 13 -15 -8 -31 -14 -11 -18 -18 -9 -18
8 0 12 -2 9 -5 -3 -3 -13 -3 -22 1 -18 7 -51 62 -42 71 3 3 1 14 -5 24 -11 21
-44 25 -55 8 -5 -8 1 -10 19 -7 15 3 28 0 31 -7 2 -7 -8 -12 -27 -14 -71 -3
-115 -9 -125 -15 -6 -3 -17 -3 -26 0 -9 3 -16 2 -16 -3 0 -5 -19 -9 -42 -8
-24 0 -48 -3 -54 -7 -15 -11 -140 -14 -182 -5 -22 5 -31 4 -27 -3 3 -5 16 -10
28 -11 20 -1 20 -2 -3 -8 -14 -4 -26 -4 -28 -1 -1 4 -14 5 -27 2 -21 -4 -25
-1 -25 21 0 25 -16 37 -51 37 -28 0 -23 -18 6 -22 24 -3 38 -24 15 -22 -5 1
-29 2 -52 3 -33 1 -40 4 -28 12 11 8 7 9 -18 6 -18 -2 -35 0 -38 4 -2 5 -11 6
-19 2 -10 -3 -15 1 -15 13 0 15 -2 16 -9 5 -5 -8 -19 -12 -35 -9 -14 3 -26 1
-26 -4 0 -5 -4 -6 -10 -3 -17 10 -11 25 9 25 11 0 23 5 27 11 4 7 23 9 50 5
39 -5 44 -3 44 14 0 10 5 22 10 25 6 4 10 -6 10 -22 l0 -28 67 3 c84 4 111 13
63 21 -29 5 -35 10 -33 29 2 12 -2 22 -7 22 -5 0 -7 6 -5 13 3 6 0 26 -5 42
-8 24 -9 16 -5 -38 3 -61 -4 -83 -20 -57 -4 6 -15 8 -26 5 -10 -4 -19 -2 -19
3 0 6 5 12 12 14 19 7 -1 28 -26 28 -14 0 -28 -10 -36 -25 -13 -24 -51 -38
-110 -39 -19 -1 -26 -7 -28 -28 -3 -29 25 -53 50 -43 8 3 77 -6 153 -21 77
-14 151 -26 165 -26 25 1 269 33 390 51 92 15 97 14 112 -16 7 -15 24 -33 38
-40 22 -11 28 -9 53 14 31 31 51 90 41 128 -3 13 -21 38 -40 54 -36 32 -67 32
-87 0 -20 -32 -28 -21 -25 31 l3 50 115 5 c63 2 130 8 149 12 l34 8 3 349 c2
192 5 351 7 353 2 1 16 4 30 5 15 1 27 8 27 16 0 7 -5 10 -11 7 -6 -4 -13 2
-16 13 -3 11 -11 23 -19 26 -17 6 -17 1 -4 -25 8 -13 7 -19 0 -19 -6 0 -15 11
-22 25 -13 29 -28 24 -21 -8 6 -20 4 -20 -21 6 -15 17 -35 28 -49 27 -35 -3
-40 -1 -29 13 8 9 0 12 -34 12 -24 0 -53 -4 -64 -9z m45 -985 c-1 -14 -6 -26
-12 -28 -18 -6 -26 16 -12 33 6 8 9 18 5 21 -4 4 -11 1 -16 -7 -8 -13 -10 -12
-10 2 0 19 32 29 41 13 4 -5 6 -21 4 -34z"/>
<path d="M2260 1189 c0 -5 11 -9 25 -9 14 0 25 4 25 9 0 5 -11 9 -25 9 -14 0
-25 -4 -25 -9z"/>
<path d="M1920 1180 c-8 -5 -11 -12 -7 -16 4 -4 13 -2 19 4 15 15 7 24 -12 12z"/>
<path d="M1633 1173 c-6 -2 -9 -12 -6 -22 3 -13 12 -16 34 -13 16 2 32 8 35
13 3 5 16 9 30 9 13 0 24 3 24 8 0 7 -97 11 -117 5z m34 -19 c-3 -3 -12 -4
-19 -1 -8 3 -5 6 6 6 11 1 17 -2 13 -5z"/>
<path d="M430 1160 c0 -5 5 -10 11 -10 5 0 7 5 4 10 -3 6 -8 10 -11 10 -2 0
-4 -4 -4 -10z"/>
<path d="M452 1120 c0 -14 2 -19 5 -12 2 6 2 18 0 25 -3 6 -5 1 -5 -13z"/>
<path d="M1492 1105 c2 -12 11 -20 22 -20 18 0 19 -10 19 -221 l0 -221 71 5
c39 3 73 9 74 13 5 12 32 11 32 -1 0 -5 11 -10 25 -10 14 0 25 5 25 11 0 5 -4
8 -8 5 -4 -2 -14 0 -22 6 -12 8 -12 9 2 4 10 -3 20 -1 23 4 4 6 -13 10 -39 10
-24 0 -51 3 -60 6 -9 3 -16 1 -16 -5 0 -6 7 -11 16 -11 8 0 12 -5 9 -10 -4 -7
-13 -6 -27 1 -11 6 -18 7 -15 2 7 -11 -51 -16 -66 -6 -5 3 -3 9 4 14 10 6 11
9 2 9 -7 0 -13 4 -13 9 0 5 14 7 30 6 24 -2 30 1 30 16 0 13 -7 19 -22 20
l-23 0 23 9 c25 11 30 30 7 30 -8 0 -15 4 -15 10 0 5 5 9 11 7 6 -1 14 4 17
12 2 8 0 11 -6 7 -13 -8 -26 10 -17 23 3 6 16 6 33 1 15 -5 71 -10 125 -12 94
-3 97 -2 97 19 0 15 -5 21 -14 17 -9 -3 -15 5 -19 25 l-6 31 -58 -6 -58 -6 3
57 4 57 69 -5 69 -5 0 34 c0 24 5 34 15 34 19 0 21 -90 3 -108 -9 -9 -9 -39 0
-129 7 -65 12 -139 11 -164 -1 -26 2 -52 5 -58 5 -7 1 -8 -9 -4 -15 5 -17 -1
-14 -51 3 -43 1 -55 -9 -51 -7 3 -11 1 -8 -4 7 -11 -33 -63 -44 -56 -5 3 -10
0 -12 -6 -4 -13 -128 -20 -128 -7 0 4 -3 7 -7 6 -16 -3 -99 25 -124 43 -62 44
-95 119 -53 119 17 0 18 -17 2 -23 -7 -2 -1 -4 15 -4 15 0 27 3 27 7 0 5 3 16
7 26 5 14 1 16 -28 12 -21 -4 -44 0 -61 10 -21 12 -31 13 -39 5 -9 -9 -5 -21
17 -50 83 -110 124 -140 223 -163 69 -16 158 -8 176 17 20 27 24 14 14 -47 -5
-30 -10 -74 -11 -97 -1 -40 -3 -43 -30 -43 -20 0 -31 -6 -37 -22 -7 -20 -17
-23 -65 -26 -45 -3 -56 0 -56 12 0 12 -11 16 -50 16 -43 0 -50 -3 -50 -20 0
-11 -4 -20 -9 -20 -5 0 -11 -7 -15 -15 -4 -12 3 -15 29 -15 26 0 35 4 35 16 0
9 -6 14 -13 11 -8 -3 -14 1 -14 9 0 17 24 19 30 2 3 -9 9 -7 20 7 8 11 19 16
24 12 4 -5 0 -13 -10 -18 -10 -6 -16 -21 -16 -37 2 -24 2 -24 6 -4 4 19 11 22
61 24 31 0 69 0 84 -1 22 -2 26 1 21 17 -4 16 3 22 32 32 42 14 65 8 64 -17
-1 -17 -2 -17 -6 0 -3 11 -10 16 -20 13 -8 -3 -19 -6 -24 -6 -5 0 -9 -7 -9
-15 0 -16 19 -19 68 -9 21 4 29 11 25 20 -3 8 -9 11 -14 8 -5 -3 -9 8 -9 25 0
30 -11 46 -24 34 -3 -3 -1 -12 5 -20 8 -8 8 -13 1 -13 -16 0 -20 22 -11 54 5
16 6 33 3 38 -3 5 -1 15 6 23 7 8 9 32 6 59 -4 36 -1 48 12 55 12 6 17 22 17
55 0 25 3 46 7 46 5 0 8 38 8 84 l0 83 62 2 c40 1 64 -3 70 -11 5 -9 13 1 25
30 15 35 22 42 39 37 17 -4 23 2 30 28 11 35 41 45 36 12 -2 -11 -4 -26 -5
-34 -1 -8 4 -16 12 -19 10 -3 12 0 8 11 -3 9 0 17 8 19 21 4 -3 49 -33 64 -13
6 -23 14 -23 18 1 3 -1 6 -4 6 -3 0 -8 0 -11 0 -4 0 -1 -7 6 -15 10 -12 10
-18 0 -30 -10 -12 -15 -12 -35 1 -21 14 -22 17 -10 42 21 42 30 86 16 78 -6
-4 -11 -18 -11 -32 0 -13 -3 -24 -7 -24 -12 0 -29 -43 -25 -61 2 -10 12 -19
23 -22 23 -6 26 -25 2 -23 -10 0 -19 -9 -23 -24 -5 -23 -12 -26 -80 -32 -41
-3 -77 -4 -80 -2 -2 3 -4 33 -2 67 1 34 3 106 5 160 3 141 20 126 21 -20 0
-30 1 -31 18 -16 12 10 15 21 9 32 -5 9 -12 35 -16 59 -6 38 -5 42 14 42 12 0
21 -3 22 -7 6 -83 12 -105 33 -126 12 -12 28 -31 34 -42 14 -26 27 -13 13 13
-6 12 -11 32 -11 47 0 15 -4 24 -10 20 -6 -4 -8 -11 -5 -16 3 -5 -1 -6 -8 -3
-9 3 -17 22 -19 44 -2 24 0 36 7 33 5 -3 4 0 -2 8 -21 22 -15 29 24 29 23 0
33 4 27 9 -5 5 -51 11 -101 13 -86 3 -92 2 -87 -15 5 -16 3 -17 -15 -8 -17 10
-21 9 -21 -4 0 -9 4 -14 8 -11 5 3 9 -1 9 -8 0 -9 -7 -12 -16 -9 -13 5 -14 3
-3 -8 6 -7 12 -17 12 -21 0 -13 -48 -9 -53 5 -4 10 -6 10 -6 0 -1 -7 -8 -13
-16 -13 -12 0 -13 4 -6 18 13 25 -3 52 -21 34 -10 -10 -10 -14 1 -21 35 -22
-23 -34 -76 -16 -7 2 -16 -2 -20 -9 -5 -7 -20 -15 -35 -18 -24 -4 -28 -2 -28
18 0 12 6 25 13 27 10 4 10 6 0 6 -20 1 -15 31 5 32 107 5 151 5 172 -3 22 -8
23 -7 10 6 -11 11 -46 15 -138 18 -118 3 -123 2 -120 -17z m178 -147 c0 -87
-7 -108 -36 -108 -23 0 -24 2 -24 85 l0 85 30 0 30 0 0 -62z m-109 -104 c-1
-70 -3 -130 -6 -132 -3 -3 -5 57 -5 133 0 76 3 136 6 133 3 -3 5 -63 5 -134z
m164 16 c0 -10 -10 -15 -27 -15 -31 -1 -34 5 -16 23 16 16 43 11 43 -8z m48 0
c-6 -24 -33 -27 -33 -4 0 8 5 12 10 9 6 -3 10 -1 10 4 0 6 4 11 9 11 5 0 7 -9
4 -20z m-173 0 c0 -5 -5 -10 -11 -10 -5 0 -7 5 -4 10 3 6 8 10 11 10 2 0 4 -4
4 -10z m200 -16 c0 -8 -4 -12 -10 -9 -5 3 -10 10 -10 16 0 5 5 9 10 9 6 0 10
-7 10 -16z m-366 -237 c4 4 4 0 0 -10 -8 -22 -21 -22 -34 2 -15 29 -12 36 8
18 10 -10 22 -14 26 -10z"/>
<path d="M2065 1097 c-17 -13 -17 -14 6 -20 28 -8 57 12 37 24 -18 12 -21 11
-43 -4z"/>
<path d="M471 1084 c0 -11 3 -14 6 -6 3 7 2 16 -1 19 -3 4 -6 -2 -5 -13z"/>
<path d="M1624 1089 c-3 -5 2 -16 10 -25 10 -9 16 -11 16 -4 0 7 8 9 20 5 30
-10 24 2 -10 18 -17 9 -32 11 -36 6z"/>
<path d="M2150 1084 c0 -14 3 -14 15 -4 8 7 15 14 15 16 0 2 -7 4 -15 4 -8 0
-15 -7 -15 -16z"/>
<path d="M2190 1090 c0 -5 5 -10 10 -10 6 0 10 5 10 10 0 6 -4 10 -10 10 -5 0
-10 -4 -10 -10z"/>
<path d="M2231 1095 c0 -5 6 -18 13 -28 12 -15 15 -15 26 -2 10 13 9 15 -8 15
-11 0 -23 6 -25 13 -3 6 -6 8 -6 2z"/>
<path d="M1985 1080 c3 -5 8 -10 11 -10 2 0 4 5 4 10 0 6 -5 10 -11 10 -5 0
-7 -4 -4 -10z"/>
<path d="M750 1050 c0 -11 2 -20 4 -20 2 0 6 9 9 20 3 11 1 20 -4 20 -5 0 -9
-9 -9 -20z"/>
<path d="M2021 1054 c10 -13 10 -17 0 -23 -9 -6 -2 -10 18 -13 18 -3 34 -1 37
4 4 5 12 7 19 5 6 -3 19 3 29 14 20 24 20 29 1 29 -8 0 -15 -4 -15 -10 0 -5
-7 -10 -15 -10 -8 0 -15 -4 -15 -10 0 -18 -29 -11 -40 10 -6 11 -16 20 -22 20
-6 0 -6 -6 3 -16z"/>
<path d="M2050 1060 c0 -5 5 -10 10 -10 6 0 10 5 10 10 0 6 -4 10 -10 10 -5 0
-10 -4 -10 -10z"/>
<path d="M425 965 c9 -37 28 -146 50 -285 9 -58 26 -150 37 -205 20 -96 24
-120 27 -175 1 -24 4 -26 58 -27 32 -1 63 3 70 9 8 6 13 7 13 1 0 -6 11 -8 25
-5 29 5 24 22 -6 22 -40 0 -75 70 -49 96 8 8 7 20 0 39 -9 23 -7 39 8 79 11
30 29 130 42 238 12 103 24 197 27 208 5 18 3 19 -26 9 -47 -16 -259 -8 -272
11 -8 11 -9 7 -4 -15z m75 -36 c0 -8 5 -8 15 1 8 7 22 9 32 5 10 -4 27 -8 38
-9 11 -1 19 -7 18 -13 -4 -20 14 -15 19 5 4 12 16 18 42 20 20 2 36 -2 36 -8
0 -5 -6 -9 -12 -7 -7 1 -12 -2 -12 -8 1 -5 4 -30 7 -55 4 -25 3 -37 -2 -26 -7
18 -8 18 -14 2 -4 -10 -2 -27 4 -39 8 -15 9 -22 1 -25 -6 -2 -8 -17 -5 -38 4
-22 2 -34 -6 -34 -6 0 -11 -8 -11 -17 0 -14 -2 -15 -9 -4 -5 8 -11 9 -15 3 -3
-5 1 -13 10 -16 12 -4 14 -14 10 -38 -5 -25 -4 -28 3 -13 9 18 10 17 10 -8 1
-16 -2 -26 -6 -24 -5 3 -9 -8 -10 -24 -3 -52 -6 -60 -19 -55 -9 4 -11 -13 -8
-70 2 -41 6 -79 9 -85 4 -5 -1 -9 -9 -9 -9 0 -16 -4 -16 -10 0 -5 -7 -10 -16
-10 -8 0 -12 -4 -9 -10 3 -5 1 -10 -4 -10 -12 0 -14 11 -5 34 3 9 12 16 20 16
8 0 14 2 14 4 0 2 3 11 6 20 3 9 1 16 -5 16 -6 0 -11 -7 -11 -15 0 -25 -18
-17 -34 17 -17 34 -22 62 -6 38 16 -24 11 -6 -7 31 -9 18 -16 48 -15 66 2 17
-2 35 -8 38 -7 5 -9 22 -5 47 4 22 3 38 -1 35 -5 -3 -10 16 -11 41 -1 25 -9
60 -18 78 -8 18 -12 40 -9 49 4 9 1 27 -6 40 -11 20 -10 26 4 40 20 20 20 26
1 19 -8 -4 -15 -2 -15 4 0 10 15 19 33 21 4 1 7 -4 7 -10z m147 -625 c-3 -3
-12 -4 -19 -1 -8 3 -5 6 6 6 11 1 17 -2 13 -5z"/>
<path d="M528 913 c7 -3 16 -2 19 1 4 3 -2 6 -13 5 -11 0 -14 -3 -6 -6z"/>
<path d="M634 792 c4 -7 2 -19 -4 -27 -7 -9 -8 -15 -2 -15 16 0 24 32 11 44
-9 8 -10 8 -5 -2z"/>
<path d="M632 720 c0 -14 2 -19 5 -12 2 6 2 18 0 25 -3 6 -5 1 -5 -13z"/>
<path d="M551 654 c0 -11 3 -14 6 -6 3 7 2 16 -1 19 -3 4 -6 -2 -5 -13z"/>
<path d="M532 600 c0 -14 2 -19 5 -12 2 6 2 18 0 25 -3 6 -5 1 -5 -13z"/>
<path d="M541 554 c0 -11 3 -14 6 -6 3 7 2 16 -1 19 -3 4 -6 -2 -5 -13z"/>
<path d="M577 456 c-4 -10 -5 -21 -2 -24 9 -9 17 6 13 25 -3 17 -4 17 -11 -1z"/>
<path d="M560 410 c0 -5 5 -10 10 -10 6 0 10 5 10 10 0 6 -4 10 -10 10 -5 0
-10 -4 -10 -10z"/>
<path d="M2218 968 c4 -16 7 -18 10 -8 3 8 10 18 16 22 6 5 2 8 -11 8 -17 0
-20 -4 -15 -22z"/>
<path d="M1936 955 c4 -8 11 -15 16 -15 6 0 8 -7 4 -15 -3 -8 -1 -15 5 -15 6
0 8 -9 4 -21 -5 -15 -4 -19 4 -14 7 4 18 1 26 -5 22 -18 18 3 -5 28 -11 12
-20 26 -20 32 0 12 -24 40 -34 40 -3 0 -3 -7 0 -15z"/>
<path d="M1900 925 c-17 -21 -26 -105 -11 -105 6 0 11 5 11 11 0 5 4 8 10 4 5
-3 5 7 -2 25 -12 37 -3 54 11 19 7 -16 10 -18 10 -7 1 9 6 18 12 20 9 3 9 10
0 26 -14 26 -24 28 -41 7z m28 -30 c-3 -3 -9 2 -12 12 -6 14 -5 15 5 6 7 -7
10 -15 7 -18z"/>
<path d="M863 911 c-10 -15 -9 -20 2 -25 7 -2 19 2 26 10 10 12 14 12 21 2 8
-10 11 -10 15 0 7 19 132 16 139 -3 9 -24 24 -17 24 10 l0 25 -108 0 c-95 0
-109 -2 -119 -19z"/>
<path d="M2180 890 c0 -5 9 -10 20 -10 11 0 20 5 20 10 0 6 -9 10 -20 10 -11
0 -20 -4 -20 -10z"/>
<path d="M2241 883 c0 -7 -10 -13 -21 -13 -11 0 -20 -4 -20 -10 0 -5 9 -10 19
-10 21 0 37 -32 26 -51 -4 -5 -19 -10 -33 -9 -42 3 -52 1 -52 -11 0 -6 15 -9
34 -8 19 2 38 0 42 -4 4 -4 -1 -7 -11 -7 -22 0 -59 -40 -47 -52 14 -14 69 43
75 77 4 17 2 48 -2 70 -5 22 -9 34 -10 28z"/>
<path d="M827 873 c-13 -12 -7 -25 8 -19 12 4 15 -5 15 -49 0 -30 1 -58 3 -62
1 -5 -14 -9 -35 -11 -35 -3 -36 -5 -34 -38 3 -37 -12 -47 -21 -14 -4 16 -9 18
-19 10 -10 -9 -9 -15 7 -31 24 -24 49 -24 49 0 0 11 6 22 13 24 10 4 10 6 0 6
-24 2 -13 21 12 21 14 0 25 -5 25 -11 0 -5 5 -7 10 -4 6 4 8 11 5 16 -4 5 -3
14 1 21 4 6 7 31 7 55 -1 41 1 44 31 50 30 7 30 7 6 13 -14 4 -28 2 -32 -4 -5
-7 -8 -5 -8 5 0 9 -7 20 -16 23 -19 7 -19 7 -27 -1z"/>
<path d="M1057 863 c-22 -6 -17 -27 8 -31 10 -3 15 0 11 7 -4 6 -2 11 3 11 6
0 11 5 11 10 0 10 -3 11 -33 3z"/>
<path d="M970 850 c0 -5 5 -10 10 -10 6 0 10 5 10 10 0 6 -4 10 -10 10 -5 0
-10 -4 -10 -10z"/>
<path d="M1970 840 c0 -5 7 -10 15 -10 35 0 11 -19 -27 -23 l-43 -4 48 -1 c48
-2 61 10 35 36 -15 15 -28 16 -28 2z"/>
<path d="M2210 821 c0 -6 5 -13 10 -16 6 -3 10 1 10 9 0 9 -4 16 -10 16 -5 0
-10 -4 -10 -9z"/>
<path d="M1060 795 c7 -18 6 -25 -3 -25 -9 0 -9 -2 1 -8 8 -5 10 -16 6 -27 -5
-13 -4 -16 5 -11 6 4 19 2 27 -5 8 -6 17 -9 20 -6 9 9 -6 27 -22 27 -10 0 -13
8 -10 26 6 32 -2 54 -20 54 -10 0 -11 -6 -4 -25z"/>
<path d="M1740 801 c0 -5 18 -7 40 -4 33 5 40 3 40 -11 0 -9 5 -16 10 -16 6 0
10 9 10 20 0 17 -7 20 -50 20 -27 0 -50 -4 -50 -9z"/>
<path d="M2066 791 c-4 -5 -3 -16 0 -25 3 -9 1 -16 -5 -16 -5 0 -15 -9 -21
-20 -6 -12 -7 -20 -1 -20 11 0 51 62 51 79 0 13 -17 15 -24 2z"/>
<path d="M911 764 c0 -11 3 -14 6 -6 3 7 2 16 -1 19 -3 4 -6 -2 -5 -13z"/>
<path d="M1660 770 c-13 -8 -13 -10 2 -10 9 0 20 5 23 10 8 13 -5 13 -25 0z"/>
<path d="M955 760 c-3 -5 -1 -10 4 -10 6 0 11 5 11 10 0 6 -2 10 -4 10 -3 0
-8 -4 -11 -10z"/>
<path d="M1820 750 c0 -5 5 -10 11 -10 5 0 7 5 4 10 -3 6 -8 10 -11 10 -2 0
-4 -4 -4 -10z"/>
<path d="M2135 750 c-3 -5 -1 -10 4 -10 6 0 11 5 11 10 0 6 -2 10 -4 10 -3 0
-8 -4 -11 -10z"/>
<path d="M1950 726 c5 -13 6 -27 2 -32 -4 -4 -1 -4 6 0 17 10 15 56 -3 56 -11
0 -12 -5 -5 -24z"/>
<path d="M955 730 c3 -5 8 -10 11 -10 2 0 4 5 4 10 0 6 -5 10 -11 10 -5 0 -7
-4 -4 -10z"/>
<path d="M1665 730 c-3 -5 -1 -10 4 -10 6 0 11 5 11 10 0 6 -2 10 -4 10 -3 0
-8 -4 -11 -10z"/>
<path d="M2076 731 c-12 -19 5 -38 30 -33 26 5 33 22 9 22 -8 0 -15 5 -15 10
0 12 -17 13 -24 1z"/>
<path d="M1820 705 c0 -8 5 -15 10 -15 6 0 10 7 10 15 0 8 -4 15 -10 15 -5 0
-10 -7 -10 -15z"/>
<path d="M898 703 c7 -3 16 -2 19 1 4 3 -2 6 -13 5 -11 0 -14 -3 -6 -6z"/>
<path d="M955 700 c4 -6 11 -8 16 -5 14 9 11 15 -7 15 -8 0 -12 -5 -9 -10z"/>
<path d="M1076 695 c4 -8 1 -15 -7 -15 -7 0 -9 -3 -6 -7 4 -3 2 -12 -4 -19 -7
-8 -6 -14 2 -19 6 -4 14 -3 18 2 3 5 15 13 26 17 19 7 19 8 3 20 -10 7 -18 18
-18 25 0 6 -4 11 -10 11 -5 0 -7 -7 -4 -15z"/>
<path d="M1126 695 c-4 -11 -3 -21 2 -23 9 -3 7 -90 -3 -122 -11 -36 -141 -78
-227 -74 -102 4 -113 11 -122 68 -6 35 -5 36 10 21 15 -14 19 -15 32 -2 19 20
6 40 -20 31 -12 -4 -18 -2 -14 4 6 11 -31 48 -40 39 -3 -3 -1 -14 4 -24 5 -10
13 -71 16 -137 8 -152 15 -198 31 -192 8 3 10 -4 7 -20 -4 -24 15 -34 32 -17
4 5 15 8 24 8 36 1 109 17 140 31 27 12 36 13 48 3 8 -7 13 -18 10 -25 -7 -18
21 -45 39 -38 18 7 20 35 3 52 -9 9 -8 15 7 26 13 9 16 18 10 32 -5 10 -9 23
-9 28 -1 5 -7 11 -14 14 -10 3 -13 -5 -10 -29 3 -32 1 -34 -31 -37 -20 -2 -37
2 -42 10 -7 11 -9 11 -9 -1 0 -8 -7 -11 -20 -8 -22 6 -28 -8 -7 -16 6 -3 -14
-6 -45 -6 -32 -1 -58 -5 -58 -11 0 -18 -29 -10 -35 10 -4 11 -15 20 -26 20
-14 0 -19 6 -18 18 2 9 -1 35 -5 56 -5 28 -4 41 6 47 10 7 10 9 1 9 -7 0 -13
9 -13 21 0 16 4 19 18 13 31 -13 158 -16 214 -5 81 17 127 60 134 126 7 59 -7
132 -20 100z m-311 -115 c3 -5 1 -10 -4 -10 -6 0 -11 5 -11 10 0 6 2 10 4 10
3 0 8 -4 11 -10z"/>
<path d="M2240 700 c0 -5 5 -10 11 -10 5 0 7 5 4 10 -3 6 -8 10 -11 10 -2 0
-4 -4 -4 -10z"/>
<path d="M2150 690 c0 -6 7 -10 15 -10 8 0 15 2 15 4 0 2 -7 6 -15 10 -8 3
-15 1 -15 -4z"/>
<path d="M2114 678 c15 -12 16 -17 6 -23 -8 -5 -18 -2 -25 8 -14 20 -41 22
-51 5 -5 -8 -2 -9 10 -5 10 4 19 1 22 -7 9 -23 33 -27 66 -10 33 17 29 24 -22
39 -24 7 -24 6 -6 -7z"/>
<path d="M843 673 c-7 -2 -13 -12 -13 -20 0 -12 7 -14 28 -8 15 3 32 11 37 16
7 7 0 8 -19 3 -21 -5 -27 -4 -22 5 8 12 7 12 -11 4z"/>
<path d="M1770 664 c0 -11 5 -14 16 -10 9 3 25 6 37 7 21 0 21 1 2 9 -32 14
-55 11 -55 -6z"/>
<path d="M2218 673 c-11 -3 -18 -14 -18 -26 0 -15 3 -18 8 -9 10 15 42 6 42
-12 -1 -30 -13 -54 -26 -49 -8 3 -14 -1 -14 -11 0 -24 17 -19 36 9 11 17 14
35 10 60 -7 38 -13 43 -38 38z"/>
<path d="M1015 650 c3 -5 10 -10 16 -10 5 0 9 5 9 10 0 6 -7 10 -16 10 -8 0
-12 -4 -9 -10z"/>
<path d="M1890 650 c0 -5 4 -10 9 -10 6 0 13 5 16 10 3 6 -1 10 -9 10 -9 0
-16 -4 -16 -10z"/>
<path d="M1931 643 c-7 -8 -10 -17 -7 -20 9 -9 29 13 25 25 -2 6 -10 3 -18 -5z"/>
<path d="M1982 648 c6 -17 38 -23 38 -8 0 6 -4 8 -10 5 -5 -3 -10 -1 -10 4 0
6 -5 11 -11 11 -6 0 -9 -6 -7 -12z"/>
<path d="M918 643 c7 -3 16 -2 19 1 4 3 -2 6 -13 5 -11 0 -14 -3 -6 -6z"/>
<path d="M2040 640 c0 -5 5 -10 10 -10 6 0 10 5 10 10 0 6 -4 10 -10 10 -5 0
-10 -4 -10 -10z"/>
<path d="M1663 633 c-19 -4 -23 -11 -23 -39 0 -21 -4 -33 -10 -29 -5 3 -10 1
-10 -4 0 -24 29 -9 32 17 2 15 8 26 16 25 6 -2 12 3 12 11 0 8 8 17 18 19 22
6 -5 6 -35 0z"/>
<path d="M1815 626 c-3 -9 -7 -23 -10 -31 -2 -8 -2 -15 1 -15 7 0 25 52 20 58
-3 3 -8 -3 -11 -12z"/>
<path d="M2165 631 c-3 -5 -1 -12 4 -15 5 -3 11 1 15 9 6 16 -9 21 -19 6z"/>
<path d="M905 620 c-4 -6 6 -10 22 -10 22 0 25 2 13 10 -19 12 -27 12 -35 0z"/>
<path d="M983 623 c-13 -2 -23 -9 -23 -15 0 -5 7 -7 16 -4 9 3 27 6 40 6 13 0
24 5 24 10 0 10 -16 11 -57 3z"/>
<path d="M1090 617 c0 -9 -7 -17 -15 -17 -9 0 -12 -6 -9 -15 8 -20 17 -19 32
6 10 15 11 24 3 32 -8 8 -11 6 -11 -6z"/>
<path d="M1289 620 c-11 -7 -11 -12 -1 -22 8 -8 12 -54 12 -155 0 -109 3 -143
13 -143 9 0 11 33 9 146 -4 142 -4 145 17 151 12 3 20 10 18 16 -4 13 -50 18
-68 7z"/>
<path d="M1590 614 c0 -12 -6 -15 -23 -11 -12 4 -29 2 -37 -3 -10 -6 -4 -9 20
-8 19 0 41 6 49 12 12 9 13 8 8 -7 -4 -11 -3 -16 3 -12 16 10 12 45 -5 45 -8
0 -15 -7 -15 -16z"/>
<path d="M1741 618 c-1 -20 0 -21 23 -12 9 3 16 11 16 16 0 6 -6 6 -14 -1 -11
-9 -15 -9 -19 1 -4 8 -6 7 -6 -4z"/>
<path d="M1706 605 c4 -8 8 -15 10 -15 2 0 4 7 4 15 0 8 -4 15 -10 15 -5 0 -7
-7 -4 -15z"/>
<path d="M1970 611 c0 -5 5 -11 11 -13 6 -2 13 -24 16 -50 6 -48 -1 -59 -41
-63 -34 -4 -36 -5 -36 -14 0 -8 69 -5 77 3 2 2 6 20 10 39 8 49 -4 107 -22
107 -8 0 -15 -4 -15 -9z"/>
<path d="M1937 603 c-13 -12 -8 -103 6 -103 8 0 12 18 12 55 0 53 -4 63 -18
48z"/>
<path d="M1901 584 c0 -11 3 -14 6 -6 3 7 2 16 -1 19 -3 4 -6 -2 -5 -13z"/>
<path d="M870 582 c0 -7 -7 -12 -15 -12 -8 0 -15 -8 -15 -17 0 -15 3 -14 22 5
12 12 19 25 15 28 -4 4 -7 2 -7 -4z"/>
<path d="M1360 586 c0 -2 8 -10 18 -17 15 -13 16 -12 3 4 -13 16 -21 21 -21
13z"/>
<path d="M1960 579 c0 -5 5 -7 10 -4 6 3 10 8 10 11 0 2 -4 4 -10 4 -5 0 -10
-5 -10 -11z"/>
<path d="M2177 570 c3 -11 7 -20 9 -20 2 0 4 9 4 20 0 11 -4 20 -9 20 -5 0 -7
-9 -4 -20z"/>
<path d="M1087 559 c-22 -25 -19 -32 7 -14 10 8 16 19 14 25 -2 6 -11 1 -21
-11z"/>
<path d="M1470 561 c0 -5 7 -15 17 -22 15 -13 15 -12 4 9 -12 23 -21 28 -21
13z"/>
<path d="M1506 557 c3 -10 9 -15 12 -12 3 3 0 11 -7 18 -10 9 -11 8 -5 -6z"/>
<path d="M1780 564 c0 -3 5 -15 11 -26 9 -17 13 -18 20 -7 14 22 10 35 -11 36
-11 1 -20 -1 -20 -3z"/>
<path d="M1588 531 c-3 -18 0 -32 8 -35 8 -3 11 5 10 24 -3 41 -13 47 -18 11z"/>
<path d="M1882 530 c0 -19 2 -27 5 -17 2 9 2 25 0 35 -3 9 -5 1 -5 -18z"/>
<path d="M1751 534 c0 -11 3 -14 6 -6 3 7 2 16 -1 19 -3 4 -6 -2 -5 -13z"/>
<path d="M250 487 c0 -33 4 -57 10 -57 7 0 8 19 4 53 -9 70 -14 72 -14 4z"/>
<path d="M1650 524 c0 -8 5 -12 10 -9 6 3 10 10 10 16 0 5 -4 9 -10 9 -5 0
-10 -7 -10 -16z"/>
<path d="M2200 525 c0 -8 5 -15 10 -15 6 0 10 7 10 15 0 8 -4 15 -10 15 -5 0
-10 -7 -10 -15z"/>
<path d="M805 510 c3 -5 13 -10 21 -10 8 0 14 5 14 10 0 6 -9 10 -21 10 -11 0
-17 -4 -14 -10z"/>
<path d="M1631 494 c0 -20 5 -34 14 -38 8 -3 15 -1 15 4 0 6 -4 10 -9 10 -5 0
-12 12 -14 28 -4 26 -4 26 -6 -4z"/>
<path d="M1770 500 c0 -11 4 -20 9 -20 5 0 7 9 4 20 -3 11 -7 20 -9 20 -2 0
-4 -9 -4 -20z"/>
<path d="M1676 501 c-4 -7 -5 -15 -2 -18 9 -9 19 4 14 18 -4 11 -6 11 -12 0z"/>
<path d="M1541 496 c15 -13 69 -35 69 -27 0 5 -14 14 -31 20 -33 11 -45 14
-38 7z"/>
<path d="M1447 476 c-4 -10 -1 -13 8 -9 8 3 12 9 9 14 -7 12 -11 11 -17 -5z"/>
<path d="M2232 470 c0 -14 2 -19 5 -12 2 6 2 18 0 25 -3 6 -5 1 -5 -13z"/>
<path d="M1075 470 c-3 -5 -4 -14 -1 -19 4 -5 0 -12 -6 -14 -10 -4 -10 -6 0
-6 7 -1 11 -5 8 -9 -2 -4 -1 -14 5 -22 7 -12 9 -9 10 10 0 14 2 35 3 48 3 23
-8 30 -19 12z"/>
<path d="M1680 459 c0 -5 5 -7 10 -4 6 3 10 8 10 11 0 2 -4 4 -10 4 -5 0 -10
-5 -10 -11z"/>
<path d="M1728 463 c6 -2 18 -2 25 0 6 3 1 5 -13 5 -14 0 -19 -2 -12 -5z"/>
<path d="M1846 455 c4 -8 8 -15 10 -15 2 0 4 7 4 15 0 8 -4 15 -10 15 -5 0 -7
-7 -4 -15z"/>
<path d="M2152 450 c0 -14 2 -19 5 -12 2 6 2 18 0 25 -3 6 -5 1 -5 -13z"/>
<path d="M815 400 c0 -28 3 -50 8 -50 4 0 7 -7 7 -15 0 -8 8 -15 18 -15 13 0
14 2 3 9 -8 5 -15 29 -16 55 -3 37 0 46 13 46 15 0 15 2 2 10 -28 18 -35 10
-35 -40z"/>
<path d="M1950 440 c0 -5 5 -10 10 -10 6 0 10 5 10 10 0 6 -4 10 -10 10 -5 0
-10 -4 -10 -10z"/>
<path d="M1400 419 c0 -5 5 -7 10 -4 6 3 10 8 10 11 0 2 -4 4 -10 4 -5 0 -10
-5 -10 -11z"/>
<path d="M2060 420 c0 -5 4 -10 9 -10 6 0 13 5 16 10 3 6 -1 10 -9 10 -9 0
-16 -4 -16 -10z"/>
<path d="M255 400 c-9 -15 4 -30 20 -23 8 3 15 9 15 13 0 12 -29 20 -35 10z"/>
<path d="M1750 402 c0 -6 -8 -13 -17 -15 -16 -4 -16 -5 -1 -6 18 -1 34 16 24
26 -3 4 -6 1 -6 -5z"/>
<path d="M1850 390 c0 -11 6 -20 14 -20 9 0 12 7 9 20 -3 11 -9 20 -14 20 -5
0 -9 -9 -9 -20z"/>
<path d="M1660 396 c0 -2 7 -7 16 -10 8 -3 12 -2 9 4 -6 10 -25 14 -25 6z"/>
<path d="M1590 359 c0 -5 9 -9 20 -9 11 0 20 2 20 4 0 2 -9 6 -20 9 -11 3 -20
1 -20 -4z"/>
<path d="M1753 348 c-2 -18 0 -20 7 -8 12 18 13 30 2 30 -4 0 -9 -10 -9 -22z"/>
<path d="M1842 335 c0 -16 2 -22 5 -12 2 9 2 23 0 30 -3 6 -5 -1 -5 -18z"/>
<path d="M218 340 c-10 -6 -18 -18 -18 -27 0 -13 3 -14 12 -5 7 7 22 12 35 12
13 0 23 5 23 11 0 8 4 8 13 2 18 -14 74 -16 60 -2 -15 15 -104 21 -125 9z"/>
<path d="M965 340 c3 -5 11 -10 16 -10 6 0 7 5 4 10 -3 6 -11 10 -16 10 -6 0
-7 -4 -4 -10z"/>
<path d="M1681 305 c-1 -11 -4 -31 -6 -45 l-6 -25 11 25 c6 13 9 33 7 45 -4
19 -4 19 -6 0z"/>
<path d="M351 283 c-1 -17 4 -35 9 -38 11 -7 11 9 0 45 -8 24 -8 24 -9 -7z"/>
<path d="M1860 300 c0 -5 5 -10 10 -10 6 0 10 5 10 10 0 6 -4 10 -10 10 -5 0
-10 -4 -10 -10z"/>
<path d="M1924 265 c2 -27 5 -51 5 -52 1 -2 6 -3 12 -3 15 0 5 78 -11 94 -9 8
-10 -1 -6 -39z"/>
<path d="M192 284 c-21 -14 -31 -36 -14 -32 4 1 18 -2 31 -6 27 -9 41 6 34 35
-6 23 -21 24 -51 3z m28 -14 c0 -5 -5 -10 -11 -10 -5 0 -7 5 -4 10 3 6 8 10
11 10 2 0 4 -4 4 -10z"/>
<path d="M250 290 c0 -5 5 -10 10 -10 6 0 10 5 10 10 0 6 -4 10 -10 10 -5 0
-10 -4 -10 -10z"/>
<path d="M290 280 c0 -11 5 -20 10 -20 6 0 10 9 10 20 0 11 -4 20 -10 20 -5 0
-10 -9 -10 -20z"/>
<path d="M703 260 c-12 -5 -31 -18 -42 -29 -12 -12 -27 -18 -36 -15 -10 4 -15
0 -15 -11 0 -14 6 -13 46 9 26 14 53 26 60 26 8 0 14 7 14 15 0 8 -1 15 -2 14
-2 0 -13 -4 -25 -9z"/>
<path d="M1901 254 c0 -11 3 -14 6 -6 3 7 2 16 -1 19 -3 4 -6 -2 -5 -13z"/>
<path d="M320 250 c0 -5 5 -10 10 -10 6 0 10 5 10 10 0 6 -4 10 -10 10 -5 0
-10 -4 -10 -10z"/>
<path d="M144 223 c-4 -16 -2 -28 7 -34 26 -16 95 -21 175 -12 68 7 79 11 82
28 1 11 -2 27 -8 35 -9 13 -11 13 -20 0 -7 -11 -5 -16 5 -18 18 -4 20 -21 3
-27 -7 -2 -34 -5 -60 -8 -42 -4 -47 -2 -57 21 -9 18 -15 22 -23 14 -6 -6 -16
-9 -22 -8 -6 2 -8 1 -3 -1 18 -11 4 -23 -23 -20 -37 4 -48 14 -26 23 22 8 20
21 -4 27 -15 4 -22 -1 -26 -20z m114 -25 c-2 -6 -10 -14 -16 -16 -7 -2 -10 2
-6 12 7 18 28 22 22 4z"/>
<path d="M277 230 c3 -11 12 -20 19 -20 18 0 18 8 0 26 -20 19 -25 18 -19 -6z"/>
<path d="M525 234 c-39 -29 -22 -54 35 -53 l35 2 -37 10 c-37 10 -52 27 -24
27 17 0 30 16 19 23 -5 3 -17 -1 -28 -9z"/>
<path d="M564 233 c3 -17 26 -26 26 -10 0 4 0 12 0 17 0 6 -6 10 -14 10 -8 0
-13 -8 -12 -17z"/>
<path d="M1754 219 c-3 -6 -1 -16 5 -22 8 -8 11 -5 11 11 0 24 -5 28 -16 11z"/>
<path d="M1895 210 c-3 -5 -1 -10 4 -10 6 0 11 5 11 10 0 6 -2 10 -4 10 -3 0
-8 -4 -11 -10z"/>
<path d="M1905 190 c-16 -7 -17 -9 -3 -9 9 -1 20 4 23 9 7 11 7 11 -20 0z"/>
</g>
</svg>
