<?xml version="1.0" standalone="no"?>
<!DOCTYPE svg PUBLIC "-//W3C//DTD SVG 20010904//EN"
 "http://www.w3.org/TR/2001/REC-SVG-20010904/DTD/svg10.dtd">
<svg version="1.0" xmlns="http://www.w3.org/2000/svg"
 width="275.000000pt" height="183.000000pt" viewBox="0 0 275.000000 183.000000"
 preserveAspectRatio="xMidYMid meet">
<metadata>
Created by potrace 1.10, written by Peter Selinger 2001-2011
</metadata>
<g transform="translate(0.000000,183.000000) scale(0.100000,-0.100000)"
fill="#000000" stroke="none">
<path d="M1230 1340 c-69 -18 -245 -97 -280 -126 -8 -6 -31 -21 -51 -32 -67
-37 -82 -47 -101 -64 -26 -25 -22 -38 10 -37 15 1 20 3 10 6 -10 2 -15 10 -11
18 3 11 10 12 23 5 22 -12 192 -16 211 -5 12 8 12 6 0 -9 -8 -10 -36 -28 -63
-42 -83 -42 -96 -89 -43 -152 33 -39 57 -44 100 -21 37 20 41 19 25 -12 -6
-10 -8 -19 -6 -19 3 0 13 14 22 31 8 17 11 29 6 25 -5 -3 -15 6 -22 19 -7 13
-17 22 -22 19 -5 -3 -4 -12 2 -19 9 -11 5 -18 -15 -31 -25 -16 -30 -16 -54 -3
-28 16 -36 46 -11 41 8 -2 11 0 7 5 -5 4 -16 8 -25 8 -12 0 -16 7 -13 25 5 37
16 53 52 74 l33 20 -38 -52 c-21 -29 -33 -52 -28 -52 5 0 17 12 27 26 24 38
52 63 61 56 4 -4 5 -2 1 3 -3 6 -2 17 2 24 6 10 12 8 26 -6 18 -17 19 -17 11
2 -28 66 3 108 104 145 35 12 77 32 92 43 27 20 33 20 204 10 98 -6 181 -16
187 -22 6 -6 18 -11 27 -11 8 0 28 -7 44 -15 15 -8 32 -13 36 -10 4 3 7 -14 6
-38 -1 -29 4 -50 18 -67 l19 -25 -7 25 c-4 14 -9 36 -11 50 -3 14 -2 17 1 7 3
-9 10 -14 16 -10 7 4 9 0 5 -10 -3 -9 1 -29 9 -44 l16 -28 -6 40 -5 40 24 -30
c14 -16 25 -25 25 -20 0 17 -39 75 -55 81 -8 4 -15 12 -15 18 0 13 -67 51 -87
49 -7 0 -11 3 -8 7 10 16 -48 42 -155 70 -75 19 -110 25 -110 17 0 -8 -3 -8
-8 1 -15 23 -130 24 -212 2z m136 -28 c-7 -19 -46 -30 -126 -33 -14 -1 -19 -4
-12 -6 17 -7 15 -23 -4 -23 -8 0 -13 -4 -10 -9 3 -5 -23 -15 -59 -22 -58 -11
-69 -18 -67 -40 1 -3 -7 -5 -16 -5 -62 0 -86 -5 -71 -14 9 -5 26 -8 38 -5 28
5 27 -11 -3 -30 -18 -12 -45 -16 -98 -14 -80 2 -98 6 -98 21 0 7 5 7 13 0 9
-8 16 -6 24 8 7 10 26 21 43 25 18 4 30 13 31 23 0 10 3 12 5 5 3 -7 0 -21 -6
-32 -6 -12 -7 -21 -2 -21 6 0 12 8 15 19 2 10 17 25 33 33 16 7 28 21 27 29
-2 8 11 23 27 32 17 10 30 15 30 11 0 -3 6 -1 14 5 7 6 22 9 32 5 15 -5 16 -4
5 4 -12 9 -10 12 12 17 15 4 33 5 41 2 9 -4 13 -1 10 7 -3 8 8 13 33 14 21 2
61 6 88 11 28 4 52 6 53 5 2 -1 1 -11 -2 -22z m70 6 c3 -4 21 -4 39 -1 19 3
35 1 39 -6 4 -6 19 -9 34 -6 23 5 22 4 -7 -10 -38 -17 -63 -20 -41 -4 11 8 6
9 -20 3 -38 -7 -90 -8 -98 0 -2 3 -2 12 1 21 6 14 39 16 53 3z m169 -27 c3 -5
0 -13 -6 -17 -7 -4 -9 -3 -5 4 3 5 0 13 -6 15 -9 4 -10 6 -1 6 6 1 14 -3 18
-8z"/>
<path d="M1180 1270 c-12 -8 -10 -10 8 -10 13 0 20 4 17 10 -7 12 -6 12 -25 0z"/>
<path d="M898 1133 c7 -3 16 -2 19 1 4 3 -2 6 -13 5 -11 0 -14 -3 -6 -6z"/>
<path d="M1724 1175 c22 -19 41 -33 44 -31 10 11 -11 44 -34 54 -45 21 -50 12
-10 -23z"/>
<path d="M1188 1194 c6 -3 12 -14 12 -25 0 -10 5 -19 10 -19 9 0 14 14 11 33
-2 12 17 8 22 -5 4 -10 6 -10 6 -1 1 9 8 10 28 2 14 -5 32 -8 39 -5 19 7 29
-14 13 -25 -11 -7 -10 -9 4 -9 9 0 17 -4 17 -10 0 -5 -5 -10 -11 -10 -7 0 -5
-10 6 -26 9 -14 15 -27 13 -28 -2 -1 -11 -8 -20 -15 -15 -11 -21 -11 -33 -1
-19 16 -32 5 -16 -13 12 -15 75 -21 66 -7 -3 5 0 12 6 15 7 5 9 23 4 50 -3 26
-2 46 4 50 6 3 8 0 5 -8 -3 -8 2 -17 10 -20 10 -4 13 -13 9 -23 -4 -12 -3 -15
5 -10 21 13 13 -5 -10 -25 -13 -10 -17 -18 -10 -19 6 0 12 5 12 11 0 5 5 7 10
4 10 -6 -13 -37 -26 -35 -4 1 -10 -3 -13 -8 -4 -7 -22 -7 -54 1 -34 7 -51 7
-58 0 -8 -8 -5 -13 10 -18 12 -3 21 -13 21 -21 0 -19 13 -18 68 6 56 24 75 50
74 101 -1 37 -25 98 -40 100 -4 0 -16 3 -27 5 -32 7 -181 15 -167 8z m132
-214 c-8 -5 -19 -10 -25 -10 -5 0 -3 5 5 10 8 5 20 10 25 10 6 0 3 -5 -5 -10z"/>
<path d="M1132 1174 c-12 -8 -22 -22 -22 -30 0 -8 -7 -14 -15 -14 -18 0 -20
-16 -3 -26 7 -4 8 -3 4 4 -4 7 -2 12 3 12 6 0 11 -6 11 -14 0 -8 5 -18 11 -22
8 -5 9 6 4 35 -4 26 -3 41 4 41 6 0 8 -6 5 -14 -3 -8 -1 -17 5 -21 6 -3 11
-16 11 -28 l0 -22 18 23 c20 26 27 22 50 -28 13 -29 16 -32 19 -14 5 28 -15
76 -30 71 -6 -2 -18 3 -25 12 -12 15 -13 14 -9 -1 8 -24 -3 -29 -22 -11 -12
12 -13 17 -3 21 7 2 9 8 6 14 -4 7 2 7 17 3 21 -7 22 -6 10 9 -17 20 -21 20
-49 0z"/>
<path d="M1246 1100 c8 -43 14 -51 14 -19 0 13 -5 31 -10 39 -7 11 -8 5 -4
-20z"/>
<path d="M742 1068 c-7 -7 -12 -18 -12 -25 0 -7 -7 -13 -15 -13 -8 0 -15 -7
-15 -17 0 -14 2 -14 21 3 23 21 43 53 37 60 -3 2 -10 -2 -16 -8z"/>
<path d="M1320 1070 c0 -5 5 -10 10 -10 6 0 10 5 10 10 0 6 -4 10 -10 10 -5 0
-10 -4 -10 -10z"/>
<path d="M864 1054 c-10 -8 -13 -12 -5 -8 7 3 17 0 22 -7 6 -10 8 -7 6 9 0 12
-2 22 -2 22 -1 0 -10 -7 -21 -16z"/>
<path d="M1426 1038 c-22 -104 -49 -399 -38 -409 4 -3 22 -11 41 -18 27 -9 36
-8 43 1 4 7 8 98 8 201 0 141 -4 196 -14 222 -19 44 -32 44 -40 3z m7 -70 c-3
-24 -7 -45 -10 -48 -6 -6 -1 71 4 83 9 16 10 5 6 -35z m26 -67 c1 -35 -5 -22
-12 24 -5 28 -4 34 3 20 5 -11 9 -31 9 -44z m-42 -43 c-3 -8 -6 -5 -6 6 -1 11
2 17 5 13 3 -3 4 -12 1 -19z m37 -198 c-3 -14 -9 -19 -11 -12 -3 6 -9 12 -14
12 -4 0 -5 -7 -2 -17 4 -11 3 -14 -6 -9 -8 5 -10 17 -6 35 4 14 7 49 6 76 -1
38 1 46 9 35 9 -11 10 -7 5 17 -4 18 -3 43 1 55 11 30 28 -156 18 -192z"/>
<path d="M1442 715 c0 -16 2 -22 5 -12 2 9 2 23 0 30 -3 6 -5 -1 -5 -18z"/>
<path d="M818 1053 c7 -3 16 -2 19 1 4 3 -2 6 -13 5 -11 0 -14 -3 -6 -6z"/>
<path d="M910 1049 c0 -5 5 -7 10 -4 6 3 10 8 10 11 0 2 -4 4 -10 4 -5 0 -10
-5 -10 -11z"/>
<path d="M1086 1041 c-4 -5 6 -17 21 -25 l28 -15 -36 -1 c-45 0 -62 -26 -24
-36 14 -3 22 -10 19 -16 -3 -5 -12 -7 -20 -4 -8 3 -11 0 -8 -9 4 -11 14 -8 44
13 22 15 38 32 35 39 -8 23 23 21 58 -4 27 -19 39 -23 53 -15 16 9 14 12 -16
20 -19 6 -29 11 -22 11 6 1 12 5 12 9 0 5 -21 8 -47 6 -36 -1 -53 3 -69 18
-14 12 -24 16 -28 9z m34 -61 c0 -5 -9 -10 -20 -10 -11 0 -20 5 -20 10 0 6 9
10 20 10 11 0 20 -4 20 -10z"/>
<path d="M1045 1030 c-16 -7 -17 -9 -3 -9 9 -1 20 4 23 9 7 11 7 11 -20 0z"/>
<path d="M838 1023 c7 -3 16 -2 19 1 4 3 -2 6 -13 5 -11 0 -14 -3 -6 -6z"/>
<path d="M704 966 c0 -13 4 -22 9 -19 10 6 9 43 -2 43 -5 0 -8 -11 -7 -24z"/>
<path d="M1139 955 c-1 -3 -2 -11 -3 -17 -1 -7 -10 -12 -21 -11 -11 1 -15 0
-9 -3 12 -5 -37 -107 -57 -119 -5 -4 -9 -11 -9 -16 0 -6 4 -8 9 -4 5 3 12 1
15 -4 3 -4 24 -5 47 -1 40 7 41 7 55 -26 8 -18 14 -41 14 -50 0 -15 16 -40 73
-108 34 -42 34 -48 1 -36 -14 6 -72 9 -130 7 -81 -1 -107 1 -113 12 -8 12 -19
12 -67 2 -74 -14 -93 -31 -33 -28 24 1 46 4 49 8 3 4 29 -1 59 -10 42 -12 74
-15 140 -10 57 5 90 3 99 -4 8 -6 21 -12 30 -14 10 -1 51 -12 92 -23 41 -12
138 -28 215 -35 77 -8 157 -17 178 -21 32 -6 37 -4 37 12 0 16 -2 17 -10 4 -8
-12 -13 -13 -30 -3 -11 7 -27 13 -35 13 -8 0 -15 3 -15 8 0 4 -18 7 -40 8 -21
0 -37 -2 -35 -5 4 -7 -120 3 -175 14 -55 11 -164 49 -172 60 -4 5 -6 15 -4 22
3 6 -2 14 -10 17 -9 3 -13 10 -9 15 3 6 -4 15 -15 21 -11 6 -18 15 -15 20 3 4
-3 16 -12 26 -10 10 -19 21 -19 26 -1 4 -2 13 -3 19 0 5 -5 8 -10 5 -5 -3 -16
15 -26 40 -13 35 -21 44 -34 38 -9 -4 -31 -9 -49 -12 -26 -3 -31 -1 -26 12 3
9 10 13 15 10 5 -3 9 5 9 17 0 12 19 40 44 65 43 43 49 58 18 47 -10 -4 -13
-2 -8 5 4 7 5 12 2 12 -3 0 -7 -2 -7 -5z m128 -341 c-3 -3 -12 -4 -19 -1 -8 3
-5 6 6 6 11 1 17 -2 13 -5z"/>
<path d="M650 941 c0 -6 5 -13 10 -16 6 -3 10 1 10 9 0 9 -4 16 -10 16 -5 0
-10 -4 -10 -9z"/>
<path d="M750 940 c0 -31 74 -160 92 -160 6 0 2 12 -8 28 -10 15 -23 37 -29
49 -7 13 -15 20 -18 16 -4 -3 -7 2 -7 13 -1 23 -29 76 -30 54z"/>
<path d="M990 930 c0 -5 7 -7 15 -4 8 4 15 8 15 10 0 2 -7 4 -15 4 -8 0 -15
-4 -15 -10z"/>
<path d="M681 920 c-1 -58 44 -190 71 -206 6 -4 2 9 -11 29 -13 22 -20 44 -16
56 3 11 -1 25 -10 34 -8 9 -15 26 -16 39 -1 27 -17 71 -18 48z"/>
<path d="M715 899 c11 -49 40 -112 59 -128 9 -8 16 -9 16 -3 0 6 -4 13 -9 17
-11 6 -41 63 -41 77 0 5 4 6 10 3 6 -3 7 1 3 10 -5 13 -7 14 -14 3 -6 -9 -9
-5 -9 14 0 15 -5 30 -11 34 -8 4 -9 -3 -4 -27z"/>
<path d="M855 920 c3 -5 8 -10 11 -10 2 0 4 5 4 10 0 6 -5 10 -11 10 -5 0 -7
-4 -4 -10z"/>
<path d="M630 900 c0 -11 5 -20 10 -20 6 0 10 9 10 20 0 11 -4 20 -10 20 -5 0
-10 -9 -10 -20z"/>
<path d="M1010 910 c-8 -5 -10 -10 -5 -10 6 0 17 5 25 10 8 5 11 10 5 10 -5 0
-17 -5 -25 -10z"/>
<path d="M911 893 c7 -12 15 -20 18 -17 3 2 -3 12 -13 22 -17 16 -18 16 -5 -5z"/>
<path d="M1150 898 c0 -6 3 -9 6 -5 11 11 56 -43 50 -60 -5 -12 -3 -13 6 -5
10 8 13 5 13 -13 0 -13 -3 -21 -7 -18 -13 7 -9 -2 18 -51 14 -25 30 -46 35
-46 5 0 9 -7 9 -15 0 -8 6 -14 13 -12 6 1 13 -5 13 -13 4 -43 5 -45 14 -25 5
11 9 14 9 8 1 -14 31 -18 31 -5 0 4 -22 30 -49 58 -39 40 -49 59 -55 97 -5 32
-17 59 -38 82 -29 34 -68 47 -68 23z"/>
<path d="M661 883 c-1 -12 -4 -30 -7 -40 -4 -13 -3 -15 4 -4 7 10 12 7 20 -15
16 -43 14 -16 -2 36 -9 26 -15 36 -15 23z"/>
<path d="M879 891 c7 -5 11 -14 7 -20 -5 -7 -1 -9 9 -5 12 5 13 9 4 20 -6 8
-17 14 -23 14 -6 0 -5 -4 3 -9z"/>
<path d="M606 882 c-7 -12 31 -102 43 -102 5 0 8 -8 7 -17 0 -10 5 -17 12 -15
8 1 12 -2 10 -8 -8 -24 -24 -11 -48 38 -24 49 -39 60 -48 34 -2 -7 3 -12 12
-12 9 0 16 -8 16 -19 0 -11 6 -21 13 -24 9 -3 7 -10 -6 -25 -15 -16 -16 -22
-5 -28 9 -6 6 -10 -12 -16 -20 -6 -18 -7 10 -4 19 3 44 1 55 -4 20 -9 20 -9 0
-10 -11 -2 -24 -2 -30 0 -5 1 -5 -4 1 -10 9 -9 17 -9 32 -1 27 15 37 14 24 -1
-8 -10 0 -13 34 -14 50 -1 59 11 14 21 -17 4 -28 11 -25 16 4 5 0 6 -8 4 -7
-3 -32 3 -55 13 -30 14 -38 22 -30 30 8 8 15 7 25 -4 12 -11 18 -12 29 -3 8 6
14 7 14 2 0 -5 16 -17 35 -26 19 -9 35 -13 35 -8 0 8 -30 24 -38 21 -9 -3 -36
35 -37 54 -1 11 -8 21 -16 21 -7 0 -23 24 -35 54 -12 29 -24 49 -28 43z"/>
<path d="M1107 843 c-10 -10 -8 -23 4 -23 5 0 8 4 5 9 -4 5 0 12 6 14 7 3 8 6
2 6 -6 1 -14 -2 -17 -6z"/>
<path d="M970 831 c0 -5 7 -12 16 -15 13 -5 14 -9 4 -21 -11 -13 -10 -14 3 -9
9 3 23 17 32 30 13 20 13 24 1 24 -8 0 -17 -6 -20 -12 -5 -10 -7 -10 -12 0 -7
14 -24 16 -24 3z"/>
<path d="M904 798 c-3 -5 -12 -7 -20 -4 -8 3 -14 -1 -14 -9 0 -8 -7 -15 -15
-15 -8 0 -15 -7 -15 -16 0 -14 1 -14 16 0 9 10 33 16 59 16 32 0 44 4 47 18 4
13 -2 17 -24 18 -16 1 -31 -3 -34 -8z m43 -14 c-3 -3 -12 -4 -19 -1 -8 3 -5 6
6 6 11 1 17 -2 13 -5z"/>
<path d="M564 773 c0 -10 -5 -17 -11 -15 -7 1 -13 -2 -13 -8 0 -5 7 -10 15
-10 17 0 19 -9 6 -28 -7 -11 -11 -10 -24 2 -10 10 -18 12 -22 6 -3 -5 0 -10 7
-11 7 0 4 -4 -6 -8 -19 -7 -19 -8 2 -13 14 -4 20 -2 15 5 -4 6 0 8 10 4 20 -7
40 24 31 47 -3 9 -1 16 5 16 6 0 11 -5 11 -12 0 -6 2 -9 5 -7 2 3 2 15 -2 27
-6 26 -31 30 -29 5z"/>
<path d="M755 748 c8 -20 54 -52 63 -44 3 3 0 6 -7 6 -8 0 -11 8 -8 20 3 11 1
20 -4 20 -5 0 -9 -5 -9 -12 0 -6 -9 -3 -20 7 -17 16 -20 16 -15 3z"/>
<path d="M1145 736 c21 -32 27 -33 16 -4 -4 12 -14 24 -20 26 -8 3 -7 -5 4
-22z"/>
<path d="M780 680 c-13 -8 -12 -10 3 -10 9 0 17 5 17 10 0 12 -1 12 -20 0z"/>
<path d="M467 643 c-14 -37 -14 -38 12 -49 32 -13 94 -65 87 -72 -3 -2 -21 7
-41 22 -23 18 -35 22 -35 13 0 -18 110 -68 180 -82 44 -9 59 -9 80 3 23 13 30
13 70 -7 29 -14 63 -21 100 -21 54 0 130 -26 145 -50 10 -16 -18 -12 -60 10
-41 21 -61 27 -35 10 11 -7 5 -10 -25 -11 l-40 -2 35 -7 c25 -5 11 -7 -47 -6
-46 0 -83 4 -83 9 0 4 -5 7 -11 7 -5 0 -8 -3 -6 -7 3 -5 -29 -9 -72 -10 -42
-2 -91 -5 -110 -8 -22 -4 -37 -1 -43 7 -6 10 -8 10 -8 1 0 -15 -122 -18 -148
-4 -9 5 -43 12 -75 15 -71 8 -119 30 -111 51 5 13 9 13 23 -3 16 -19 71 -35
71 -21 0 4 -12 9 -27 11 -16 2 -27 8 -26 16 2 6 -4 12 -12 12 -8 0 -15 5 -15
11 0 6 -9 1 -21 -12 -11 -13 -18 -18 -14 -12 3 7 -1 23 -9 35 -20 28 -20 62
-1 78 9 7 15 8 15 2 0 -5 7 -12 15 -16 13 -4 14 -2 5 14 -6 11 -7 20 -1 20 5
0 11 -7 15 -15 6 -17 26 -20 26 -4 0 6 -7 18 -16 27 -15 15 -19 14 -53 -4 -46
-24 -52 -62 -21 -120 32 -57 95 -94 183 -107 101 -14 748 3 770 21 8 7 44 14
78 15 55 2 69 -2 103 -26 36 -25 46 -27 135 -27 53 0 136 5 186 10 83 10 91 9
117 -10 32 -23 74 -19 83 9 3 10 23 35 45 57 22 21 40 45 40 52 0 13 14 28 70
77 36 31 50 68 30 80 -16 10 -63 -36 -50 -49 7 -7 15 -4 25 10 8 10 15 14 15
8 0 -6 -6 -16 -12 -21 -16 -12 -49 -13 -42 -1 8 13 -11 9 -25 -4 -6 -7 -26
-13 -44 -14 -118 -1 -168 -5 -164 -11 3 -5 -18 -8 -46 -7 -51 1 -80 7 -222 47
-38 11 -87 22 -109 24 -56 8 -37 -13 21 -22 39 -6 44 -9 28 -16 -13 -6 -7 -7
20 -3 31 4 37 3 25 -6 -13 -9 -12 -11 5 -9 11 2 38 -3 60 -9 50 -14 134 -27
158 -24 11 1 15 -2 12 -9 -4 -6 1 -5 13 2 16 10 24 9 46 -8 l26 -21 43 21 c23
11 54 27 69 34 23 12 28 11 36 -3 8 -15 10 -15 15 0 7 18 27 22 27 5 0 -5 -4
-8 -9 -5 -5 3 -12 -1 -15 -10 -3 -8 -10 -13 -15 -10 -5 3 -21 0 -35 -8 -22
-11 -24 -15 -11 -20 23 -8 27 -8 20 4 -3 5 -2 10 3 10 6 0 12 -7 16 -15 4 -11
-2 -15 -26 -15 -25 0 -29 -2 -18 -15 16 -19 4 -35 -26 -35 -15 0 -23 -4 -19
-11 10 -15 -24 -49 -42 -42 -8 3 -12 11 -9 18 2 6 0 18 -5 26 -8 11 -9 9 -7
-6 3 -21 1 -21 -46 -9 -17 4 -27 3 -23 -2 3 -5 -48 -9 -118 -9 -68 0 -121 -3
-118 -7 2 -5 -8 -3 -23 2 -15 6 -38 10 -49 8 -21 -3 -96 29 -103 43 -2 4 -12
5 -22 2 -11 -3 -20 0 -20 6 0 6 -4 11 -10 11 -5 0 -10 -8 -10 -17 0 -15 -2
-16 -10 -3 -6 10 -10 11 -10 3 0 -7 -12 -13 -28 -13 -15 0 -33 -5 -38 -10 -7
-7 -33 2 -80 25 -56 28 -80 35 -130 35 -37 0 -67 6 -80 15 -10 8 -26 15 -35
15 -9 0 -22 7 -29 15 -7 8 -18 15 -24 14 -7 0 -6 -2 2 -6 18 -7 14 -25 -5 -22
-10 2 -28 -1 -40 -5 -28 -9 -72 2 -53 14 7 5 2 8 -15 8 -20 0 -24 -3 -14 -10
11 -7 9 -8 -4 -4 -10 3 -21 6 -23 6 -3 0 -2 5 1 10 3 6 1 10 -5 10 -7 0 -10 6
-7 14 3 8 -1 13 -11 12 -9 0 -16 5 -14 12 1 8 -1 11 -6 9 -4 -3 -19 4 -32 15
-14 11 -18 17 -10 13 10 -4 9 -1 -2 8 -22 18 -22 23 -2 31 10 4 13 2 8 -6 -5
-8 -2 -9 11 -4 10 4 21 2 24 -3 9 -13 121 -34 201 -37 36 -2 69 -3 73 -3 5 -1
5 -6 1 -12 -4 -8 -9 -7 -16 2 -7 10 -8 9 -4 -5 4 -12 0 -23 -11 -31 -10 -8
-15 -16 -12 -20 4 -3 28 15 55 40 27 25 53 45 57 45 5 0 6 4 3 8 -3 5 -31 5
-63 0 -32 -4 -87 -5 -123 -2 -67 7 -188 39 -204 55 -17 15 -23 10 -39 -28z
m1317 -118 c-10 -8 -26 -14 -34 -14 -11 0 -10 3 4 14 11 8 27 15 35 15 11 0
10 -4 -5 -15z"/>
<path d="M580 666 c0 -2 9 -6 20 -9 11 -3 18 -1 14 4 -5 9 -34 13 -34 5z"/>
<path d="M1270 651 c0 -6 4 -13 10 -16 6 -3 7 1 4 9 -7 18 -14 21 -14 7z"/>
<path d="M280 603 c1 -18 32 -47 52 -50 23 -3 23 -3 -1 11 -20 11 -21 14 -7
19 10 4 15 3 12 -2 -3 -4 18 -11 47 -14 28 -4 63 -9 77 -13 25 -6 25 -6 -4 20
-22 20 -32 23 -38 14 -5 -9 -8 -9 -8 -2 0 16 -36 24 -48 12 -6 -6 -17 -6 -30
1 -24 13 -52 15 -52 4z"/>
<path d="M640 590 c0 -5 5 -10 11 -10 5 0 7 5 4 10 -3 6 -8 10 -11 10 -2 0 -4
-4 -4 -10z"/>
<path d="M1348 573 c7 -3 16 -2 19 1 4 3 -2 6 -13 5 -11 0 -14 -3 -6 -6z"/>
<path d="M375 542 c12 -5 20 -19 20 -32 0 -13 7 -25 15 -27 12 -4 13 -3 1 5
-7 5 -10 15 -7 21 9 15 49 14 64 -1 15 -15 16 -32 2 -23 -5 3 -10 2 -10 -4 0
-5 9 -9 19 -8 11 0 17 5 15 9 -8 12 4 10 36 -7 25 -13 28 -13 26 1 -1 9 -18
25 -37 37 -26 17 -31 18 -20 4 19 -24 -1 -21 -22 3 -9 11 -25 20 -36 20 -10 0
-34 2 -52 5 -25 4 -29 3 -14 -3z m165 -52 c8 -5 11 -10 5 -10 -5 0 -17 5 -25
10 -8 5 -10 10 -5 10 6 0 17 -5 25 -10z"/>
<path d="M610 540 c0 -5 5 -10 11 -10 5 0 7 5 4 10 -3 6 -8 10 -11 10 -2 0 -4
-4 -4 -10z"/>
<path d="M207 524 c-4 -4 -7 -14 -7 -23 0 -11 3 -12 11 -4 6 6 10 16 7 23 -2
6 -7 8 -11 4z"/>
<path d="M1610 500 c0 -5 5 -10 11 -10 5 0 7 5 4 10 -3 6 -8 10 -11 10 -2 0
-4 -4 -4 -10z"/>
<path d="M760 461 c-14 -4 -20 -10 -14 -14 6 -3 20 0 30 8 21 16 20 16 -16 6z"/>
<path d="M640 440 c0 -5 7 -10 16 -10 8 0 12 5 9 10 -3 6 -10 10 -16 10 -5 0
-9 -4 -9 -10z"/>
<path d="M814 434 c9 -8 14 -19 11 -24 -3 -4 3 -6 13 -3 10 2 19 11 19 19 0
10 -4 11 -14 3 -10 -9 -13 -8 -13 5 0 9 -7 16 -16 16 -14 0 -14 -1 0 -16z"/>
<path d="M1084 435 c11 -8 24 -15 30 -15 5 0 1 7 -10 15 -10 8 -23 14 -29 14
-5 0 -1 -6 9 -14z"/>
<path d="M1128 443 c7 -3 16 -2 19 1 4 3 -2 6 -13 5 -11 0 -14 -3 -6 -6z"/>
<path d="M653 403 c9 -2 25 -2 35 0 9 3 1 5 -18 5 -19 0 -27 -2 -17 -5z"/>
</g>
</svg>
