<?xml version="1.0" standalone="no"?>
<!DOCTYPE svg PUBLIC "-//W3C//DTD SVG 20010904//EN"
 "http://www.w3.org/TR/2001/REC-SVG-20010904/DTD/svg10.dtd">
<svg version="1.0" xmlns="http://www.w3.org/2000/svg"
 width="275.000000pt" height="183.000000pt" viewBox="0 0 275.000000 183.000000"
 preserveAspectRatio="xMidYMid meet">
<metadata>
Created by potrace 1.10, written by Peter Selinger 2001-2011
</metadata>
<g transform="translate(0.000000,183.000000) scale(0.100000,-0.100000)"
fill="#000000" stroke="none">
<path d="M1305 1720 c-3 -6 1 -7 9 -4 18 7 21 14 7 14 -6 0 -13 -4 -16 -10z"/>
<path d="M1450 1710 c-13 -8 -13 -11 -1 -22 10 -10 12 -10 7 0 -4 7 -1 12 8
12 8 0 18 5 21 10 8 13 -15 13 -35 0z"/>
<path d="M1515 1710 c-3 -6 1 -7 9 -4 18 7 21 14 7 14 -6 0 -13 -4 -16 -10z"/>
<path d="M1271 1694 c0 -11 3 -14 6 -6 3 7 2 16 -1 19 -3 4 -6 -2 -5 -13z"/>
<path d="M1490 1655 c0 -20 -5 -45 -10 -56 -11 -19 -3 -25 15 -11 14 10 18 89
6 97 -7 4 -11 -7 -11 -30z"/>
<path d="M1530 1679 c0 -5 5 -7 10 -4 6 3 10 8 10 11 0 2 -4 4 -10 4 -5 0 -10
-5 -10 -11z"/>
<path d="M1408 1672 c-10 -4 -14 -12 -10 -18 5 -6 13 -4 25 8 18 19 14 21 -15
10z"/>
<path d="M1570 1656 c0 -14 5 -28 11 -32 6 -3 8 -16 5 -28 -3 -11 -1 -28 4
-36 9 -13 10 -13 11 0 0 8 2 28 3 43 1 16 -2 31 -6 33 -4 3 -8 14 -8 25 0 10
-4 19 -10 19 -5 0 -10 -11 -10 -24z"/>
<path d="M1635 1670 c-3 -5 -1 -10 4 -10 6 0 11 5 11 10 0 6 -2 10 -4 10 -3 0
-8 -4 -11 -10z"/>
<path d="M1658 1625 c-2 -19 0 -41 4 -48 5 -8 8 -4 8 10 0 17 4 21 17 16 11
-4 12 -8 5 -11 -7 -2 -12 -15 -12 -29 0 -15 -3 -24 -6 -20 -12 12 -44 -37 -60
-93 -7 -24 -7 -24 -16 -5 -6 16 -7 14 -3 -7 3 -16 1 -28 -5 -28 -5 0 -10 -13
-10 -30 0 -19 -5 -30 -14 -30 -9 0 -12 -7 -9 -22 3 -14 1 -18 -4 -12 -4 6 -19
14 -33 18 -14 3 -19 3 -12 0 6 -3 10 -10 7 -15 -4 -5 1 -6 9 -3 9 3 16 1 16
-5 0 -6 6 -11 13 -11 15 0 21 11 64 110 15 36 42 89 60 119 37 62 40 77 17
109 -21 31 -31 28 -36 -13z"/>
<path d="M1257 1535 c-3 -55 -9 -113 -12 -130 -5 -29 -5 -29 5 -5 14 32 27
179 20 211 -4 13 -9 -20 -13 -76z"/>
<path d="M1560 1602 c0 -6 -7 -18 -16 -26 -8 -9 -14 -22 -11 -29 2 -6 12 3 21
21 10 19 15 36 12 40 -3 3 -6 0 -6 -6z"/>
<path d="M1621 1559 c-19 -43 -8 -57 11 -15 10 19 14 37 10 40 -4 2 -14 -9
-21 -25z"/>
<path d="M1455 1560 c3 -5 8 -10 11 -10 2 0 4 5 4 10 0 6 -5 10 -11 10 -5 0
-7 -4 -4 -10z"/>
<path d="M1540 1491 c0 -16 13 -19 35 -11 15 6 26 5 29 -1 2 -5 3 -4 2 3 -3
14 -66 22 -66 9z"/>
<path d="M1470 1479 c0 -5 5 -7 10 -4 6 3 10 8 10 11 0 2 -4 4 -10 4 -5 0 -10
-5 -10 -11z"/>
<path d="M1438 1413 c5 -21 7 -23 10 -9 2 10 0 22 -6 28 -6 6 -7 0 -4 -19z"/>
<path d="M1237 1353 c-15 -14 -6 -51 13 -56 12 -3 20 -14 20 -26 0 -12 6 -21
15 -21 8 0 15 5 15 10 0 6 -6 10 -12 10 -10 0 -10 2 -1 8 9 6 4 13 -17 26 -29
17 -40 36 -20 36 17 0 25 -5 23 -12 -2 -4 4 -5 13 -1 13 5 13 8 2 15 -13 9 7
6 55 -9 9 -3 17 -1 17 5 0 16 -109 30 -123 15z"/>
<path d="M1375 1329 c-4 -6 -1 -10 6 -8 36 4 60 -2 53 -13 -4 -7 -4 -10 1 -6
4 4 20 1 36 -8 25 -12 29 -21 29 -55 0 -23 -7 -47 -15 -56 -9 -9 -13 -23 -10
-34 6 -19 -27 -85 -49 -101 -16 -11 0 -9 28 3 13 6 28 21 32 33 6 20 7 20 11
-5 6 -35 -12 -75 -41 -94 -24 -16 -26 -16 -53 9 -15 14 -22 26 -15 26 6 0 12
5 12 10 0 6 9 29 20 53 12 26 18 55 16 75 -4 26 -2 32 10 28 8 -3 14 -1 14 5
0 6 -8 9 -17 7 -12 -2 -18 -12 -17 -31 0 -15 -4 -27 -9 -27 -4 0 -6 -4 -2 -9
6 -11 -15 -61 -26 -61 -4 0 -11 -9 -14 -20 -3 -11 -12 -20 -20 -20 -7 0 -15
-5 -17 -12 -3 -7 -11 -9 -24 -3 -10 4 -22 7 -26 7 -8 -2 -12 14 -9 32 1 5 -2
12 -7 15 -14 9 -24 61 -12 61 9 0 14 -13 11 -32 0 -3 7 -5 17 -3 9 2 29 4 43
4 15 1 37 10 50 20 20 17 22 22 10 33 -8 7 -11 8 -8 2 8 -14 -13 -23 -51 -25
-27 -1 -27 -1 3 -9 l30 -8 -36 -1 c-27 -1 -41 5 -52 22 -14 19 -18 20 -26 7
-6 -8 -8 -25 -6 -37 3 -13 7 -33 10 -46 6 -30 90 -115 121 -123 32 -8 109 38
130 78 10 20 14 42 10 62 -11 52 -8 68 18 95 43 45 59 120 23 108 -6 -2 -43
11 -82 30 -75 35 -90 39 -100 22z m195 -79 c0 -5 -7 -10 -16 -10 -10 0 -14 -6
-10 -15 3 -8 1 -15 -4 -15 -6 0 -10 -7 -10 -15 0 -8 -2 -15 -4 -15 -2 0 -13
-3 -23 -6 -16 -5 -16 -4 -2 8 9 7 20 24 24 38 10 33 45 56 45 30z m-170 -268
c19 -16 20 -19 7 -30 -20 -17 -72 5 -56 24 8 9 6 11 -9 7 -11 -2 -23 0 -26 6
-12 19 60 13 84 -7z"/>
<path d="M1310 1319 c0 -5 5 -7 10 -4 6 3 10 8 10 11 0 2 -4 4 -10 4 -5 0 -10
-5 -10 -11z"/>
<path d="M1373 1293 c-12 -2 -29 -16 -38 -30 -16 -24 -16 -26 0 -42 17 -15 17
-15 12 1 -4 10 -2 17 5 15 6 -1 13 4 15 11 3 6 -1 12 -9 12 -10 0 -9 3 2 10
20 13 67 13 75 0 13 -22 -7 -31 -32 -15 -14 9 -27 14 -31 11 -3 -3 0 -6 6 -6
7 0 12 -7 12 -15 0 -8 -5 -15 -12 -15 -6 0 -8 -3 -5 -6 4 -4 14 -1 24 7 15 12
16 12 10 -4 -6 -17 -6 -17 23 0 31 18 36 29 22 50 -9 14 -49 22 -79 16z"/>
<path d="M1221 1232 c3 -70 14 -84 39 -53 11 13 20 28 20 34 0 6 -6 3 -13 -8
-19 -25 -35 -12 -35 31 0 19 -3 38 -7 42 -3 4 -5 -17 -4 -46z"/>
<path d="M1240 1271 c0 -6 5 -13 10 -16 6 -3 10 1 10 9 0 9 -4 16 -10 16 -5 0
-10 -4 -10 -9z"/>
<path d="M1309 1229 c0 -2 -2 -12 -4 -21 -2 -10 0 -17 3 -17 19 3 32 -2 32
-11 0 -6 -6 -10 -12 -9 -24 3 -38 -1 -38 -11 0 -11 36 -12 63 -2 16 7 15 11
-13 42 -16 18 -30 32 -31 29z"/>
<path d="M1301 1071 c-11 -7 -9 -10 9 -16 15 -5 28 -2 38 9 15 15 14 16 -8 16
-14 0 -31 -4 -39 -9z"/>
<path d="M1540 1048 c0 -18 2 -20 9 -9 14 21 41 -4 41 -37 0 -25 1 -25 14 -7
8 11 12 23 10 27 -3 5 -1 8 4 8 6 0 13 -7 16 -16 3 -8 11 -12 17 -9 6 4 17 -3
26 -15 8 -12 25 -25 37 -29 20 -8 21 -15 21 -134 0 -69 -3 -123 -6 -121 -9 5
-29 -68 -22 -79 3 -6 1 -7 -4 -4 -24 15 -31 -54 -8 -76 7 -8 17 -26 21 -41 3
-14 10 -24 14 -21 5 3 11 1 15 -5 4 -6 10 -8 15 -5 5 3 11 1 15 -5 3 -5 15
-10 26 -10 10 0 19 -4 19 -9 0 -5 12 -12 28 -14 20 -3 17 -4 -13 -6 -23 0 -50
6 -63 15 -12 8 -22 12 -22 7 0 -4 -4 -1 -10 7 -5 8 -12 11 -16 7 -4 -4 -2 -13
4 -19 7 -7 12 -20 12 -30 0 -17 6 -18 53 -12 28 4 65 14 80 23 l29 16 -5 100
c-6 116 -30 234 -40 196 -3 -13 0 -42 8 -65 7 -22 13 -52 13 -66 0 -14 3 -42
6 -62 4 -23 2 -38 -4 -38 -5 0 -10 -5 -10 -11 0 -5 5 -7 11 -3 7 4 10 -1 7
-12 -2 -12 -13 -20 -28 -21 -36 -2 -71 8 -64 18 3 5 -4 9 -15 9 -12 0 -21 4
-21 9 0 5 -9 13 -20 16 -11 3 -20 11 -20 17 0 5 7 8 15 4 8 -3 28 0 45 5 22 8
32 20 40 47 16 63 26 206 16 247 l-9 38 -24 -63 c-13 -35 -21 -72 -17 -83 4
-12 2 -17 -4 -13 -6 4 -8 -2 -4 -16 5 -22 5 -22 14 2 5 13 7 29 4 36 -4 12 20
74 29 74 5 0 -2 -77 -13 -132 -6 -33 -5 -49 2 -52 7 -3 6 -5 -1 -5 -7 -1 -13
-10 -13 -21 0 -11 -4 -20 -10 -20 -5 0 -7 -7 -4 -15 6 -14 -13 -21 -41 -15 -5
1 -18 2 -27 3 -26 2 -25 12 17 112 15 34 35 119 34 138 -1 6 -5 1 -9 -13 -7
-20 -8 -17 -8 20 0 25 -1 53 -2 63 -1 10 9 26 21 36 13 10 19 23 15 29 -12 20
-28 13 -21 -9 5 -15 4 -19 -5 -14 -6 4 -10 15 -7 26 6 22 -27 54 -44 43 -7 -4
-10 -3 -6 3 5 9 -135 83 -156 83 -4 0 -7 -10 -7 -22z"/>
<path d="M1230 1038 c0 -20 19 -72 25 -67 2 3 -2 23 -10 44 -8 22 -14 32 -15
23z"/>
<path d="M1453 1021 c0 -11 5 -18 9 -15 4 3 5 11 1 19 -7 21 -12 19 -10 -4z"/>
<path d="M1184 1013 c-15 -15 -16 -33 -11 -153 3 -74 10 -148 16 -165 7 -21 8
16 4 131 -4 114 -2 166 6 182 14 26 9 28 -15 5z"/>
<path d="M1120 1000 c-24 -18 -24 -19 -3 -14 12 4 28 12 34 20 17 20 -2 17
-31 -6z"/>
<path d="M1075 971 c-3 -5 -2 -12 3 -15 5 -3 9 1 9 9 0 17 -3 19 -12 6z"/>
<path d="M1110 966 c0 -3 9 -10 20 -16 11 -6 20 -8 20 -6 0 3 -9 10 -20 16
-11 6 -20 8 -20 6z"/>
<path d="M1501 949 c-7 -12 -10 -23 -8 -26 3 -3 11 5 17 17 15 28 8 35 -9 9z"/>
<path d="M1227 949 c7 -7 15 -10 18 -7 3 3 -2 9 -12 12 -14 6 -15 5 -6 -5z"/>
<path d="M1275 930 c16 -31 20 -54 8 -47 -5 3 -14 -1 -21 -9 -17 -18 -2 -18
25 1 20 14 20 16 4 49 -9 20 -19 35 -24 36 -4 0 -1 -13 8 -30z"/>
<path d="M1548 930 c2 -16 6 -30 8 -30 2 0 4 14 4 30 0 17 -4 30 -8 30 -5 0
-7 -13 -4 -30z"/>
<path d="M1050 935 c0 -20 28 -50 38 -40 4 4 1 10 -5 12 -7 3 -13 11 -13 18 0
8 -4 17 -10 20 -5 3 -10 -1 -10 -10z"/>
<path d="M1605 913 c4 -21 10 -51 13 -68 3 -16 6 -54 6 -82 1 -29 4 -53 8 -53
3 0 8 -8 10 -17 2 -10 4 9 5 42 1 69 -25 215 -40 215 -5 0 -6 -15 -2 -37z"/>
<path d="M995 905 c-22 -19 -36 -34 -32 -35 4 0 20 11 34 24 15 14 30 23 33
21 4 -2 7 2 7 10 0 8 -1 15 -1 15 -1 0 -19 -16 -41 -35z"/>
<path d="M1711 924 c0 -11 3 -14 6 -6 3 7 2 16 -1 19 -3 4 -6 -2 -5 -13z"/>
<path d="M1792 895 c-13 -28 -16 -73 -5 -62 3 4 7 15 8 25 1 9 6 25 10 35 12
28 0 30 -13 2z"/>
<path d="M1323 898 c3 -9 2 -18 -4 -20 -12 -4 -21 -48 -10 -48 11 0 36 30 25
30 -5 0 -2 5 6 10 13 8 12 12 -4 27 -17 16 -18 16 -13 1z"/>
<path d="M1363 893 c-3 -10 -8 -22 -11 -27 -3 -5 0 -6 6 -2 18 11 35 46 22 46
-6 0 -13 -8 -17 -17z"/>
<path d="M1580 892 c0 -15 -6 -22 -20 -22 -18 0 -20 -7 -21 -72 0 -40 -4 -96
-8 -124 -4 -29 -4 -60 0 -70 6 -15 8 -13 9 11 3 68 28 237 30 205 2 -28 4 -23
11 24 5 33 7 62 4 64 -3 3 -5 -4 -5 -16z"/>
<path d="M1100 881 c-13 -25 -13 -41 1 -18 6 9 14 15 20 12 5 -3 6 1 3 9 -8
21 -11 20 -24 -3z"/>
<path d="M1687 881 c-4 -17 -3 -21 5 -13 5 5 8 16 6 23 -3 8 -7 3 -11 -10z"/>
<path d="M1506 870 c-5 -14 -22 -40 -39 -57 -17 -18 -28 -36 -24 -40 4 -3 7
-1 7 5 0 7 7 12 15 12 8 0 15 7 15 16 0 8 4 13 9 9 14 -8 33 31 29 58 -4 21
-4 21 -12 -3z"/>
<path d="M1011 873 c8 -2 23 -28 34 -58 10 -30 22 -55 27 -55 14 0 9 18 -17
70 -17 33 -31 50 -43 49 -14 -1 -14 -2 -1 -6z"/>
<path d="M1422 871 c-11 -7 -11 -9 1 -14 9 -3 18 1 21 9 6 16 -2 18 -22 5z"/>
<path d="M1231 854 c0 -11 3 -14 6 -6 3 7 2 16 -1 19 -3 4 -6 -2 -5 -13z"/>
<path d="M946 845 c-3 -9 -6 -22 -5 -28 0 -7 5 -1 10 12 5 13 8 26 5 28 -2 2
-6 -3 -10 -12z"/>
<path d="M1342 830 c-7 -11 -8 -20 -3 -20 6 0 14 6 18 14 4 7 15 16 23 19 11
4 9 6 -5 6 -11 1 -26 -8 -33 -19z"/>
<path d="M1102 790 c0 -19 2 -27 5 -17 2 9 2 25 0 35 -3 9 -5 1 -5 -18z"/>
<path d="M1270 810 c0 -5 7 -10 15 -10 8 0 15 5 15 10 0 6 -7 10 -15 10 -8 0
-15 -4 -15 -10z"/>
<path d="M1120 805 c0 -5 5 -17 10 -25 5 -8 10 -10 10 -5 0 6 -5 17 -10 25 -5
8 -10 11 -10 5z"/>
<path d="M932 775 c0 -16 2 -22 5 -12 2 9 2 23 0 30 -3 6 -5 -1 -5 -18z"/>
<path d="M1346 787 c3 -10 9 -15 12 -12 3 3 0 11 -7 18 -10 9 -11 8 -5 -6z"/>
<path d="M1230 745 c0 -27 -4 -67 -9 -87 -8 -35 2 -128 17 -155 10 -17 11 247
2 271 -7 16 -9 8 -10 -29z"/>
<path d="M1695 780 c3 -5 8 -10 11 -10 2 0 4 5 4 10 0 6 -5 10 -11 10 -5 0 -7
-4 -4 -10z"/>
<path d="M1131 728 l-14 -33 -4 28 c-3 15 -9 27 -14 27 -12 0 -11 -23 3 -57 6
-15 12 -34 14 -42 1 -8 7 -17 13 -20 15 -9 33 -62 26 -79 -3 -10 0 -12 10 -8
17 6 19 -2 6 -24 -6 -8 -7 -18 -4 -23 3 -5 8 -5 12 1 3 6 12 -1 18 -14 10 -22
10 -24 -3 -14 -10 9 -14 9 -14 1 0 -6 2 -11 4 -11 2 0 12 -3 21 -7 15 -5 16
-1 10 28 -4 19 -10 36 -14 39 -3 3 -12 27 -19 55 -7 27 -18 53 -24 56 -6 4 -8
14 -5 23 4 10 1 16 -8 16 -19 0 -19 34 0 54 16 16 20 36 7 36 -4 0 -14 -15
-21 -32z"/>
<path d="M923 690 c0 -30 2 -43 4 -27 2 15 2 39 0 55 -2 15 -4 2 -4 -28z"/>
<path d="M1691 699 c-6 -18 -9 -34 -7 -36 2 -2 9 10 15 28 6 18 9 34 7 36 -2
2 -9 -10 -15 -28z"/>
<path d="M1058 689 c2 -16 8 -29 12 -29 9 0 1 48 -9 55 -4 2 -5 -9 -3 -26z"/>
<path d="M1582 685 c0 -16 2 -22 5 -12 2 9 2 23 0 30 -3 6 -5 -1 -5 -18z"/>
<path d="M1069 639 c-11 -7 -11 -9 3 -9 9 0 18 -5 20 -12 3 -7 7 -8 10 -3 9
16 -17 34 -33 24z"/>
<path d="M1760 641 c0 -6 4 -13 10 -16 6 -3 7 1 4 9 -7 18 -14 21 -14 7z"/>
<path d="M932 605 c0 -16 2 -22 5 -12 2 9 2 23 0 30 -3 6 -5 -1 -5 -18z"/>
<path d="M1018 623 c7 -3 16 -2 19 1 4 3 -2 6 -13 5 -11 0 -14 -3 -6 -6z"/>
<path d="M1607 615 c-4 -8 -2 -17 3 -20 6 -4 10 3 10 14 0 25 -6 27 -13 6z"/>
<path d="M1745 610 c3 -5 8 -10 11 -10 2 0 4 5 4 10 0 6 -5 10 -11 10 -5 0 -7
-4 -4 -10z"/>
<path d="M1840 601 c0 -6 5 -13 10 -16 6 -3 10 1 10 9 0 9 -4 16 -10 16 -5 0
-10 -4 -10 -9z"/>
<path d="M1285 580 c-8 -13 15 -24 27 -12 6 6 4 11 -6 15 -8 3 -18 2 -21 -3z"/>
<path d="M1340 575 c0 -8 2 -15 4 -15 2 0 6 7 10 15 3 8 1 15 -4 15 -6 0 -10
-7 -10 -15z"/>
<path d="M1531 564 c0 -11 3 -14 6 -6 3 7 2 16 -1 19 -3 4 -6 -2 -5 -13z"/>
<path d="M924 470 c0 -52 1 -74 3 -47 2 26 2 68 0 95 -2 26 -3 4 -3 -48z"/>
<path d="M1124 536 c4 -10 -1 -29 -9 -42 -9 -13 -12 -24 -7 -24 5 0 14 11 21
24 10 19 11 28 1 42 -11 18 -11 18 -6 0z"/>
<path d="M1810 531 c0 -11 19 -24 38 -27 15 -3 16 8 0 24 -14 14 -38 16 -38 3z"/>
<path d="M1515 472 c-4 -24 -5 -45 -3 -47 9 -9 24 52 18 70 -6 15 -9 10 -15
-23z"/>
<path d="M1642 490 c0 -14 2 -19 5 -12 2 6 2 18 0 25 -3 6 -5 1 -5 -13z"/>
<path d="M1105 446 c-22 -21 -34 -36 -27 -32 7 4 12 1 12 -8 0 -10 -7 -13 -20
-11 -34 7 -52 -5 -46 -30 4 -17 -1 -25 -27 -37 -28 -14 -30 -17 -13 -24 13 -5
23 -2 31 9 7 10 19 14 34 10 13 -3 26 -1 30 5 4 7 23 14 41 18 19 3 31 2 25
-3 -11 -9 -15 -53 -5 -53 14 0 30 25 30 47 0 23 20 34 20 11 1 -8 6 -6 14 5 9
12 16 14 21 8 8 -14 -52 -70 -83 -78 -29 -7 -39 2 -22 22 11 13 9 15 -11 15
-13 0 -31 -4 -39 -10 -8 -5 -19 -5 -25 0 -7 6 -11 2 -11 -10 0 -15 13 -20 71
-28 88 -13 124 -11 117 6 -2 7 -11 11 -18 8 -21 -8 -17 8 6 22 11 7 20 19 20
27 0 8 9 15 20 15 26 0 48 39 29 51 -8 5 -17 9 -21 9 -5 0 -8 8 -9 18 0 9 -3
12 -5 6 -3 -6 2 -24 10 -39 17 -33 14 -41 -11 -29 -10 4 -24 8 -32 8 -8 1 -16
7 -19 14 -2 7 2 10 11 6 19 -7 33 14 19 28 -8 8 -16 7 -27 -2 -13 -11 -15 -10
-9 3 4 12 1 14 -15 10 -12 -3 -21 -10 -21 -15 0 -6 -7 -7 -16 -4 -8 3 -12 2
-9 -4 9 -15 -11 -12 -23 3 -8 10 -6 16 9 25 15 9 19 10 19 0 0 -9 3 -9 11 -1
6 6 9 19 7 29 -2 16 -9 13 -43 -20z m75 -55 c0 -5 -18 -12 -40 -16 -23 -4 -37
-11 -34 -17 8 -12 -56 0 -70 13 -9 8 53 15 91 10 6 -1 14 3 18 9 8 12 35 13
35 1z m-113 -47 c-3 -3 -12 -4 -19 -1 -8 3 -5 6 6 6 11 1 17 -2 13 -5z m33
-48 c0 -11 -19 -15 -25 -6 -3 5 1 10 9 10 9 0 16 -2 16 -4z"/>
<path d="M1390 482 c0 -6 -8 -13 -17 -15 -16 -4 -16 -5 -1 -6 18 -1 34 16 24
26 -3 4 -6 1 -6 -5z"/>
<path d="M1686 467 c3 -10 9 -15 12 -12 3 3 0 11 -7 18 -10 9 -11 8 -5 -6z"/>
<path d="M1049 468 c0 -2 -2 -13 -3 -25 -2 -19 0 -21 12 -11 9 8 10 14 3 16
-6 2 -9 8 -5 13 3 5 3 9 0 9 -3 0 -6 -1 -7 -2z"/>
<path d="M1280 460 c-9 -6 -10 -10 -3 -10 6 0 15 5 18 10 8 12 4 12 -15 0z"/>
<path d="M1313 455 c-10 -10 -10 -15 0 -23 9 -8 12 -4 13 14 1 13 1 24 0 24 0
-1 -6 -7 -13 -15z"/>
<path d="M1585 430 c-4 -12 -5 -24 -2 -27 3 -2 8 5 12 17 4 12 5 24 2 27 -3 2
-8 -5 -12 -17z"/>
<path d="M1351 426 c-10 -11 -9 -14 1 -12 14 2 23 15 15 22 -2 2 -10 -2 -16
-10z"/>
<path d="M1290 427 c0 -2 9 -14 20 -27 11 -13 20 -27 20 -32 0 -10 -17 -11
-23 0 -2 4 -2 2 -1 -5 2 -7 -2 -15 -7 -19 -6 -3 -9 -19 -5 -34 4 -24 2 -27
-14 -23 -12 3 -20 0 -20 -6 0 -7 -4 -9 -10 -6 -5 3 -10 11 -10 16 0 6 4 8 9 5
14 -9 21 20 9 32 -17 17 -38 -27 -24 -50 11 -18 76 -26 76 -9 0 4 11 6 24 4
22 -5 24 -2 19 18 -7 30 -22 49 -37 49 -6 0 -2 -7 8 -15 11 -8 15 -15 9 -15
-6 0 -16 6 -22 14 -10 12 -8 17 7 25 16 9 23 6 35 -12 8 -12 18 -19 21 -16 3
3 -3 18 -14 32 -12 15 -22 30 -22 34 -2 8 -48 47 -48 40z"/>
<path d="M1458 416 c-22 -16 -23 -26 -4 -26 7 0 16 9 19 20 3 11 4 20 4 20 -1
0 -10 -7 -19 -14z"/>
<path d="M1702 408 c-1 -15 -7 -30 -12 -33 -6 -4 -8 -16 -4 -27 3 -12 2 -37
-4 -57 -21 -72 -30 -136 -21 -141 5 -3 7 -16 4 -29 -5 -27 5 -84 14 -76 3 4 6
58 7 122 1 76 5 118 13 123 8 4 11 30 8 76 -1 38 -4 57 -5 42z"/>
<path d="M1681 404 c0 -11 3 -14 6 -6 3 7 2 16 -1 19 -3 4 -6 -2 -5 -13z"/>
<path d="M956 392 c-3 -5 1 -9 9 -9 8 0 12 4 9 9 -3 4 -7 8 -9 8 -2 0 -6 -4
-9 -8z"/>
<path d="M1500 374 c-6 -14 -10 -33 -10 -42 0 -22 -10 -36 -35 -50 -19 -11
-19 -11 2 -12 28 0 49 32 58 88 8 47 0 56 -15 16z"/>
<path d="M1420 381 c0 -5 5 -13 10 -16 6 -3 10 -2 10 4 0 5 -4 13 -10 16 -5 3
-10 2 -10 -4z"/>
<path d="M1641 374 c0 -11 3 -14 6 -6 3 7 2 16 -1 19 -3 4 -6 -2 -5 -13z"/>
<path d="M885 370 c-3 -6 1 -7 9 -4 18 7 21 14 7 14 -6 0 -13 -4 -16 -10z"/>
<path d="M957 347 c-2 -12 -8 -30 -12 -39 -5 -13 -2 -18 10 -18 9 0 13 5 10
11 -4 5 0 18 8 27 12 14 13 19 2 29 -10 9 -14 7 -18 -10z"/>
<path d="M980 366 c0 -2 7 -7 16 -10 8 -3 12 -2 9 4 -6 10 -25 14 -25 6z"/>
<path d="M883 340 c2 -8 12 -16 23 -17 13 -2 15 -1 4 4 -8 3 -19 11 -23 17 -6
7 -7 6 -4 -4z"/>
<path d="M1424 329 c-3 -6 -2 -15 3 -20 5 -5 9 -1 9 11 0 23 -2 24 -12 9z"/>
<path d="M1671 324 c0 -11 3 -14 6 -6 3 7 2 16 -1 19 -3 4 -6 -2 -5 -13z"/>
<path d="M1383 314 c-24 -26 -13 -43 16 -25 9 6 10 14 5 24 -8 12 -11 13 -21
1z"/>
<path d="M1397 264 c-16 -9 -27 -18 -24 -20 7 -8 57 15 57 26 0 12 1 13 -33
-6z"/>
<path d="M948 263 c7 -3 16 -2 19 1 4 3 -2 6 -13 5 -11 0 -14 -3 -6 -6z"/>
<path d="M1000 261 c8 -6 22 -11 31 -11 9 0 20 -7 23 -16 3 -8 9 -13 14 -10 4
2 14 0 22 -6 12 -8 12 -9 -2 -4 -10 3 -18 4 -18 2 0 -13 60 -135 69 -140 13
-8 31 34 30 67 0 17 -3 14 -13 -11 -12 -33 -12 -33 -30 -13 -18 19 -17 21 7
45 14 14 27 30 29 36 1 5 12 12 23 14 11 2 38 8 60 14 22 5 50 8 62 7 12 -1
20 2 17 6 -6 10 -110 6 -120 -4 -12 -12 -69 -8 -83 6 -11 10 -12 9 -6 -2 6
-10 2 -11 -16 -6 -13 4 -26 11 -29 15 -3 5 -23 11 -45 15 -30 5 -36 4 -25 -4z
m135 -71 c-13 -14 -22 -17 -29 -10 -7 7 -6 14 2 22 9 9 12 9 12 -2 1 -11 4
-10 11 3 6 10 13 16 17 13 3 -3 -3 -15 -13 -26z"/>
<path d="M1602 250 c0 -14 2 -19 5 -12 2 6 2 18 0 25 -3 6 -5 1 -5 -13z"/>
<path d="M1441 224 c-12 -14 -20 -28 -17 -31 3 -4 7 -4 9 -2 1 2 13 16 26 32
30 34 15 35 -18 1z"/>
<path d="M954 223 c-15 -16 -15 -18 12 -41 28 -25 42 -18 30 14 -5 12 -10 14
-20 5 -22 -19 -27 1 -4 20 11 11 16 19 10 19 -6 0 -18 -8 -28 -17z"/>
<path d="M1630 224 c0 -8 5 -12 10 -9 6 3 10 10 10 16 0 5 -4 9 -10 9 -5 0
-10 -7 -10 -16z"/>
<path d="M1025 210 c-3 -5 -1 -10 4 -10 6 0 11 5 11 10 0 6 -2 10 -4 10 -3 0
-8 -4 -11 -10z"/>
<path d="M1257 148 c3 -40 10 -80 15 -88 8 -12 8 -11 4 3 -3 10 -6 50 -6 88 0
38 -4 69 -9 69 -6 0 -7 -30 -4 -72z"/>
<path d="M1351 211 c-9 -6 -10 -11 -2 -15 6 -4 11 -2 11 4 0 6 5 8 12 4 7 -4
8 -3 4 4 -8 14 -7 14 -25 3z"/>
<path d="M1190 166 c0 -18 7 -49 15 -67 l15 -34 -6 55 c-3 30 -6 61 -6 68 -3
28 -18 9 -18 -22z"/>
<path d="M1017 161 c-5 -19 15 -41 36 -41 8 0 17 11 19 25 7 32 -1 39 -19 17
-12 -14 -14 -14 -10 -1 3 9 -1 16 -8 16 -8 0 -15 -8 -18 -16z"/>
<path d="M1390 169 c0 -5 5 -7 10 -4 6 3 10 8 10 11 0 2 -4 4 -10 4 -5 0 -10
-5 -10 -11z"/>
<path d="M1355 150 c-3 -6 1 -7 9 -4 18 7 21 14 7 14 -6 0 -13 -4 -16 -10z"/>
<path d="M1300 140 c0 -5 5 -10 10 -10 6 0 10 5 10 10 0 6 -4 10 -10 10 -5 0
-10 -4 -10 -10z"/>
<path d="M1036 83 c9 -38 14 -42 14 -10 0 14 -5 29 -10 32 -7 4 -8 -3 -4 -22z"/>
<path d="M1085 100 c3 -5 8 -10 11 -10 2 0 4 5 4 10 0 6 -5 10 -11 10 -5 0 -7
-4 -4 -10z"/>
<path d="M1181 84 c0 -11 3 -14 6 -6 3 7 2 16 -1 19 -3 4 -6 -2 -5 -13z"/>
<path d="M1433 80 c-8 -12 -9 -21 -3 -25 6 -3 10 1 10 9 0 10 9 16 23 17 12 0
31 4 42 9 16 7 11 9 -20 9 -30 1 -43 -4 -52 -19z"/>
<path d="M1601 84 c0 -11 3 -14 6 -6 3 7 2 16 -1 19 -3 4 -6 -2 -5 -13z"/>
<path d="M1300 79 c0 -5 5 -7 10 -4 6 3 10 8 10 11 0 2 -4 4 -10 4 -5 0 -10
-5 -10 -11z"/>
<path d="M1028 23 c5 -21 7 -23 10 -9 2 10 0 22 -6 28 -6 6 -7 0 -4 -19z"/>
<path d="M1676 15 c-3 -8 -1 -15 4 -15 6 0 10 7 10 15 0 19 -6 19 -14 0z"/>
</g>
</svg>
